试验5.11/TEK00000.CSV

Model,TBS2104X
Firmware Version,v1.31.14

Point Format,Y,,,
Horizontal Units,S,,,
Horizontal Scale,0.01,,,
Sample Interval,8e-06,,,
Filter Frequency,2e+08,,,
Record Length,20000,,,
Gating,0.0% to 100.0%,0.0% to 100.0%,0.0% to 100.0%,0.0% to 100.0%
Probe Attenuation,1,1,1,1
Vertical Units,V,V,V,A
Vertical Offset,0,0,0,0
Vertical Scale,1,1,0.5,0.2
Label,,,,
TIME,CH1,CH2,CH3,CH4
-9.7392e-02,0.35,0.36,0.255,-0.038
-9.7384e-02,0.35,0.36,0.255,-0.03
-9.7376e-02,0.35,0.36,0.235,-0.03
-9.7368e-02,0.39,0.36,0.255,-0.03
-9.7360e-02,0.39,0.36,0.255,-0.03
-9.7352e-02,0.39,0.36,0.275,-0.03
-9.7344e-02,0.35,0.36,0.255,-0.022
-9.7336e-02,0.39,0.36,0.255,-0.03
-9.7328e-02,0.39,0.4,0.255,-0.03
-9.7320e-02,0.39,0.36,0.255,-0.03
-9.7312e-02,0.39,0.36,0.255,-0.03
-9.7304e-02,0.39,0.36,0.255,-0.03
-9.7296e-02,0.43,0.36,0.255,-0.03
-9.7288e-02,0.39,0.36,0.255,-0.03
-9.7280e-02,0.39,0.32,0.235,-0.03
-9.7272e-02,0.39,0.32,0.255,-0.03
-9.7264e-02,0.35,0.4,0.255,-0.03
-9.7256e-02,0.39,0.36,0.255,-0.03
-9.7248e-02,0.35,0.32,0.255,-0.03
-9.7240e-02,0.39,0.4,0.255,-0.03
-9.7232e-02,0.35,0.36,0.255,-0.03
-9.7224e-02,0.39,0.36,0.255,-0.03
-9.7216e-02,0.39,0.36,0.255,-0.038
-9.7208e-02,0.39,0.36,0.275,-0.03
-9.7200e-02,0.39,0.36,0.255,-0.03
-9.7192e-02,0.39,0.36,0.255,-0.03
-9.7184e-02,0.39,0.36,0.255,-0.03
-9.7176e-02,0.35,0.36,0.255,-0.03
-9.7168e-02,0.39,0.4,0.255,-0.038
-9.7160e-02,0.39,0.36,0.255,-0.03
-9.7152e-02,0.43,0.36,0.255,-0.03
-9.7144e-02,0.39,0.36,0.255,-0.038
-9.7136e-02,0.39,0.36,0.255,-0.03
-9.7128e-02,0.35,0.36,0.255,-0.03
-9.7120e-02,0.35,0.36,0.235,-0.03
-9.7112e-02,0.39,0.32,0.235,-0.03
-9.7104e-02,0.39,0.36,0.255,-0.03
-9.7096e-02,0.39,0.32,0.235,-0.038
-9.7088e-02,0.39,0.36,0.255,-0.038
-9.7080e-02,0.39,0.36,0.255,-0.03
-9.7072e-02,0.39,0.36,0.255,-0.038
-9.7064e-02,0.39,0.36,0.255,-0.03
-9.7056e-02,0.39,0.36,0.235,-0.038
-9.7048e-02,0.35,0.32,0.275,-0.03
-9.7040e-02,0.39,0.36,0.235,-0.03
-9.7032e-02,0.39,0.36,0.255,-0.03
-9.7024e-02,0.39,0.36,0.255,-0.03
-9.7016e-02,0.39,0.36,0.255,-0.03
-9.7008e-02,0.39,0.4,0.255,-0.03
-9.7000e-02,0.35,0.36,0.255,-0.03
-9.6992e-02,0.39,0.36,0.255,-0.03
-9.6984e-02,0.39,0.36,0.255,-0.03
-9.6976e-02,0.39,0.36,0.255,-0.038
-9.6968e-02,0.39,0.4,0.255,-0.03
-9.6960e-02,0.39,0.36,0.255,-0.03
-9.6952e-02,0.39,0.36,0.275,-0.03
-9.6944e-02,0.35,0.36,0.255,-0.03
-9.6936e-02,0.39,0.36,0.255,-0.03
-9.6928e-02,0.35,0.36,0.255,-0.03
-9.6920e-02,0.39,0.36,0.255,-0.03
-9.6912e-02,0.35,0.36,0.255,-0.03
-9.6904e-02,0.39,0.36,0.255,-0.03
-9.6896e-02,0.39,0.36,0.255,-0.03
-9.6888e-02,0.39,0.36,0.255,-0.03
-9.6880e-02,0.39,0.36,0.255,-0.03
-9.6872e-02,0.39,0.36,0.255,-0.038
-9.6864e-02,0.39,0.36,0.255,-0.03
-9.6856e-02,0.39,0.36,0.255,-0.038
-9.6848e-02,0.35,0.32,0.275,-0.038
-9.6840e-02,0.35,0.36,0.255,-0.03
-9.6832e-02,0.39,0.36,0.255,-0.03
-9.6824e-02,0.39,0.36,0.255,-0.03
-9.6816e-02,0.39,0.4,0.275,-0.03
-9.6808e-02,0.39,0.36,0.255,-0.022
-9.6800e-02,0.39,0.36,0.255,-0.03
-9.6792e-02,0.39,0.36,0.255,-0.03
-9.6784e-02,0.39,0.36,0.255,-0.03
-9.6776e-02,0.39,0.36,0.255,-0.03
-9.6768e-02,0.39,0.36,0.255,-0.03
-9.6760e-02,0.39,0.32,0.235,-0.03
-9.6752e-02,0.39,0.36,0.235,-0.03
-9.6744e-02,0.39,0.36,0.255,-0.03
-9.6736e-02,0.39,0.36,0.275,-0.03
-9.6728e-02,0.39,0.36,0.255,-0.03
-9.6720e-02,0.39,0.32,0.255,-0.038
-9.6712e-02,0.39,0.36,0.255,-0.03
-9.6704e-02,0.39,0.36,0.335,-0.03
-9.6696e-02,0.39,0.36,0.395,-0.222
-9.6688e-02,0.39,0.36,0.395,-0.166
-9.6680e-02,0.39,0.36,0.395,-0.102
-9.6672e-02,0.39,0.36,0.395,-0.07
-9.6664e-02,0.39,0.36,0.395,-0.078
-9.6656e-02,0.35,0.36,0.395,-0.11
-9.6648e-02,0.39,0.36,0.395,-0.158
-9.6640e-02,0.39,0.4,0.395,-0.134
-9.6632e-02,0.39,0.36,0.395,-0.126
-9.6624e-02,0.39,0.36,0.395,-0.134
-9.6616e-02,0.39,0.4,0.395,-0.126
-9.6608e-02,0.39,0.36,0.375,-0.134
-9.6600e-02,0.39,0.36,0.395,-0.126
-9.6592e-02,0.39,0.36,0.395,-0.126
-9.6584e-02,0.39,0.36,0.395,-0.126
-9.6576e-02,0.39,0.36,0.395,-0.126
-9.6568e-02,0.39,0.36,0.395,-0.126
-9.6560e-02,0.35,0.36,0.395,-0.126
-9.6552e-02,0.35,0.36,0.395,-0.134
-9.6544e-02,0.39,0.36,0.395,-0.126
-9.6536e-02,0.39,0.36,0.395,-0.134
-9.6528e-02,0.35,0.36,0.375,-0.134
-9.6520e-02,0.39,0.4,0.395,-0.126
-9.6512e-02,0.39,0.36,0.395,-0.126
-9.6504e-02,0.39,0.4,0.395,-0.126
-9.6496e-02,0.39,0.36,0.395,-0.126
-9.6488e-02,0.35,0.36,0.395,-0.126
-9.6480e-02,0.39,0.36,0.395,-0.126
-9.6472e-02,0.39,0.36,0.395,-0.134
-9.6464e-02,0.39,0.36,0.395,-0.134
-9.6456e-02,0.39,0.36,0.395,-0.126
-9.6448e-02,0.39,0.36,0.375,-0.126
-9.6440e-02,0.39,0.36,0.395,-0.126
-9.6432e-02,0.39,0.36,0.395,-0.126
-9.6424e-02,0.39,0.36,0.395,-0.134
-9.6416e-02,0.39,0.32,0.395,-0.134
-9.6408e-02,0.39,0.36,0.395,-0.134
-9.6400e-02,0.39,0.4,0.395,-0.126
-9.6392e-02,0.39,0.36,0.375,-0.126
-9.6384e-02,0.39,0.36,0.395,-0.134
-9.6376e-02,0.39,0.36,0.395,-0.126
-9.6368e-02,0.39,0.4,0.395,-0.126
-9.6360e-02,0.35,0.36,0.395,-0.126
-9.6352e-02,0.39,0.36,0.395,-0.126
-9.6344e-02,0.39,0.32,0.395,-0.134
-9.6336e-02,0.39,0.36,0.395,-0.126
-9.6328e-02,0.39,0.36,0.395,-0.126
-9.6320e-02,0.39,0.4,0.395,-0.126
-9.6312e-02,0.39,0.36,0.395,-0.134
-9.6304e-02,0.39,0.36,0.395,-0.126
-9.6296e-02,0.39,0.36,0.375,-0.126
-9.6288e-02,0.39,0.36,0.395,-0.134
-9.6280e-02,0.39,0.36,0.395,-0.126
-9.6272e-02,0.39,0.36,0.395,-0.126
-9.6264e-02,0.39,0.36,0.395,-0.126
-9.6256e-02,0.39,0.36,0.395,-0.126
-9.6248e-02,0.39,0.36,0.395,-0.134
-9.6240e-02,0.35,0.36,0.395,-0.126
-9.6232e-02,0.35,0.4,0.395,-0.126
-9.6224e-02,0.39,0.36,0.395,-0.126
-9.6216e-02,0.39,0.36,0.395,-0.134
-9.6208e-02,0.39,0.36,0.395,-0.126
-9.6200e-02,0.35,0.36,0.395,-0.134
-9.6192e-02,0.39,0.36,0.395,-0.126
-9.6184e-02,0.39,0.32,0.395,-0.134
-9.6176e-02,0.39,0.4,0.395,-0.126
-9.6168e-02,0.39,0.4,0.395,-0.134
-9.6160e-02,0.39,0.36,0.395,-0.126
-9.6152e-02,0.39,0.36,0.395,-0.134
-9.6144e-02,0.39,0.36,0.395,-0.134
-9.6136e-02,0.39,0.36,0.395,-0.126
-9.6128e-02,0.39,0.36,0.395,-0.126
-9.6120e-02,0.39,0.36,0.395,-0.126
-9.6112e-02,0.39,0.36,0.395,-0.134
-9.6104e-02,0.39,0.36,0.395,-0.126
-9.6096e-02,0.39,0.36,0.375,-0.126
-9.6088e-02,0.43,0.36,0.395,-0.134
-9.6080e-02,0.39,0.36,0.395,-0.134
-9.6072e-02,0.43,0.36,0.395,-0.126
-9.6064e-02,0.35,0.32,0.395,-0.126
-9.6056e-02,0.35,0.36,0.395,-0.134
-9.6048e-02,0.43,0.36,0.395,-0.126
-9.6040e-02,0.39,0.36,0.395,-0.134
-9.6032e-02,0.39,0.36,0.375,-0.134
-9.6024e-02,0.39,0.36,0.395,-0.134
-9.6016e-02,0.39,0.36,0.395,-0.126
-9.6008e-02,0.39,0.32,0.395,-0.126
-9.6000e-02,0.39,0.36,0.395,-0.126
-9.5992e-02,0.39,0.36,0.395,-0.126
-9.5984e-02,0.39,0.4,0.395,-0.134
-9.5976e-02,0.39,0.36,0.395,-0.126
-9.5968e-02,0.39,0.36,0.395,-0.126
-9.5960e-02,0.39,0.36,0.395,-0.134
-9.5952e-02,0.35,0.36,0.395,-0.126
-9.5944e-02,0.39,0.36,0.395,-0.126
-9.5936e-02,0.39,0.36,0.395,-0.134
-9.5928e-02,0.39,0.36,0.395,-0.126
-9.5920e-02,0.39,0.36,0.395,-0.126
-9.5912e-02,0.39,0.36,0.395,-0.126
-9.5904e-02,-0.00999995,-0.04,0.135,-0.094
-9.5896e-02,0.03,-0.04,0.135,-0.078
-9.5888e-02,-0.00999995,-0.04,0.135,-0.086
-9.5880e-02,-0.00999995,-0.04,0.135,-0.094
-9.5872e-02,-0.00999995,-0.04,0.115,-0.086
-9.5864e-02,-0.00999995,-0.04,0.135,-0.086
-9.5856e-02,-0.00999995,-0.08,0.115,-0.078
-9.5848e-02,-0.00999995,-5.96046e-09,0.115,-0.078
-9.5840e-02,-0.00999995,-0.04,0.135,-0.078
-9.5832e-02,-0.00999995,-0.04,0.135,-0.078
-9.5824e-02,-0.00999995,-0.04,0.115,-0.078
-9.5816e-02,-0.05,-0.04,0.135,-0.078
-9.5808e-02,-0.05,-0.04,0.135,-0.086
-9.5800e-02,-0.00999995,-0.04,0.135,-0.078
-9.5792e-02,-0.00999995,-0.04,0.115,-0.078
-9.5784e-02,-0.00999995,-0.04,0.135,-0.078
-9.5776e-02,-0.00999995,-0.04,0.135,-0.078
-9.5768e-02,-0.00999995,-5.96046e-09,0.115,-0.078
-9.5760e-02,-0.00999995,-0.08,0.135,-0.078
-9.5752e-02,-0.00999995,-5.96046e-09,0.135,-0.078
-9.5744e-02,-0.05,-0.04,0.115,-0.078
-9.5736e-02,-0.00999995,-0.08,0.135,-0.078
-9.5728e-02,-0.00999995,-0.04,0.115,-0.078
-9.5720e-02,-0.05,-0.04,0.115,-0.078
-9.5712e-02,-0.00999995,-0.04,0.135,-0.086
-9.5704e-02,-0.00999995,-0.04,0.135,-0.078
-9.5696e-02,-0.05,-5.96046e-09,0.115,-0.078
-9.5688e-02,-0.00999995,-0.04,0.115,-0.078
-9.5680e-02,-0.00999995,-0.04,0.135,-0.078
-9.5672e-02,-0.00999995,-0.04,0.135,-0.078
-9.5664e-02,0.03,-0.04,0.135,-0.078
-9.5656e-02,-0.00999995,-0.04,0.135,-0.078
-9.5648e-02,-0.00999995,-0.04,0.135,-0.078
-9.5640e-02,-0.00999995,-0.04,0.135,-0.078
-9.5632e-02,-0.00999995,-5.96046e-09,0.115,-0.078
-9.5624e-02,-0.00999995,-0.04,0.135,-0.078
-9.5616e-02,0.03,-0.04,0.115,-0.078
-9.5608e-02,-0.00999995,-0.04,0.135,-0.078
-9.5600e-02,0.03,-0.04,0.115,-0.078
-9.5592e-02,-0.00999995,-0.04,0.135,-0.078
-9.5584e-02,-0.00999995,-0.04,0.115,-0.078
-9.5576e-02,-0.00999995,-0.04,0.115,-0.078
-9.5568e-02,-0.00999995,-5.96046e-09,0.135,-0.078
-9.5560e-02,-0.00999995,-0.04,0.115,-0.078
-9.5552e-02,-0.00999995,-0.04,0.135,-0.078
-9.5544e-02,-0.00999995,-0.04,0.135,-0.078
-9.5536e-02,-0.00999995,-0.04,0.135,-0.078
-9.5528e-02,0.03,-0.04,0.115,-0.078
-9.5520e-02,-0.00999995,-5.96046e-09,0.135,-0.078
-9.5512e-02,-0.00999995,-0.04,0.115,-0.078
-9.5504e-02,-0.00999995,-0.04,0.135,-0.07
-9.5496e-02,-0.00999995,-5.96046e-09,0.135,-0.078
-9.5488e-02,-0.00999995,-0.04,0.135,-0.078
-9.5480e-02,-0.00999995,-0.04,0.135,-0.078
-9.5472e-02,-0.00999995,-0.04,0.135,-0.078
-9.5464e-02,-0.00999995,-0.04,0.135,-0.078
-9.5456e-02,-0.00999995,-0.08,0.135,-0.078
-9.5448e-02,-0.00999995,-0.04,0.135,-0.078
-9.5440e-02,-0.00999995,-5.96046e-09,0.135,-0.078
-9.5432e-02,-0.00999995,-0.04,0.135,-0.078
-9.5424e-02,-0.00999995,-0.04,0.135,-0.078
-9.5416e-02,0.03,-0.04,0.135,-0.078
-9.5408e-02,-0.00999995,-0.04,0.135,-0.078
-9.5400e-02,-0.00999995,-0.08,0.115,-0.078
-9.5392e-02,-0.00999995,-0.04,0.135,-0.078
-9.5384e-02,-0.00999995,-5.96046e-09,0.135,-0.078
-9.5376e-02,-0.00999995,-5.96046e-09,0.115,-0.078
-9.5368e-02,-0.05,-0.04,0.115,-0.078
-9.5360e-02,-0.05,-0.04,0.115,-0.078
-9.5352e-02,-0.00999995,-5.96046e-09,0.135,-0.078
-9.5344e-02,-0.00999995,-0.04,0.135,-0.078
-9.5336e-02,-0.00999995,-5.96046e-09,0.135,-0.078
-9.5328e-02,-0.00999995,-0.04,0.115,-0.078
-9.5320e-02,-0.00999995,-0.04,0.135,-0.078
-9.5312e-02,-0.00999995,-0.08,0.135,-0.078
-9.5304e-02,-0.00999995,-0.04,0.115,-0.078
-9.5296e-02,0.03,-0.04,0.135,-0.078
-9.5288e-02,-0.00999995,-0.04,0.115,-0.078
-9.5280e-02,-0.00999995,-0.04,0.135,-0.078
-9.5272e-02,-0.00999995,-5.96046e-09,0.135,-0.078
-9.5264e-02,-0.00999995,-0.04,0.135,-0.078
-9.5256e-02,-0.00999995,-0.04,0.135,-0.078
-9.5248e-02,-0.00999995,-0.04,0.135,-0.078
-9.5240e-02,0.03,-0.04,0.135,-0.078
-9.5232e-02,-0.00999995,-0.04,0.135,-0.07
-9.5224e-02,-0.00999995,-0.04,0.135,-0.078
-9.5216e-02,-0.00999995,-0.04,0.135,-0.078
-9.5208e-02,-0.00999995,-0.04,0.135,-0.086
-9.5200e-02,-0.00999995,-0.08,0.115,-0.078
-9.5192e-02,-0.00999995,-0.04,0.135,-0.078
-9.5184e-02,-0.00999995,-5.96046e-09,0.135,-0.078
-9.5176e-02,-0.00999995,-5.96046e-09,0.135,-0.078
-9.5168e-02,-0.00999995,-0.04,0.115,-0.078
-9.5160e-02,-0.00999995,-0.04,0.135,-0.078
-9.5152e-02,0.39,0.36,0.375,-0.094
-9.5144e-02,0.39,0.36,0.395,-0.11
-9.5136e-02,0.39,0.36,0.395,-0.134
-9.5128e-02,0.39,0.36,0.395,-0.118
-9.5120e-02,0.39,0.36,0.415,-0.134
-9.5112e-02,0.39,0.36,0.395,-0.126
-9.5104e-02,0.39,0.4,0.395,-0.126
-9.5096e-02,0.39,0.36,0.395,-0.126
-9.5088e-02,0.39,0.36,0.395,-0.126
-9.5080e-02,0.39,0.36,0.395,-0.134
-9.5072e-02,0.39,0.36,0.395,-0.126
-9.5064e-02,0.39,0.36,0.395,-0.126
-9.5056e-02,0.39,0.4,0.395,-0.134
-9.5048e-02,0.39,0.36,0.395,-0.126
-9.5040e-02,0.39,0.36,0.395,-0.134
-9.5032e-02,0.39,0.36,0.395,-0.126
-9.5024e-02,0.39,0.36,0.395,-0.126
-9.5016e-02,0.39,0.32,0.395,-0.126
-9.5008e-02,0.39,0.36,0.395,-0.126
-9.5000e-02,0.39,0.36,0.395,-0.126
-9.4992e-02,0.39,0.36,0.395,-0.126
-9.4984e-02,0.39,0.36,0.395,-0.126
-9.4976e-02,0.39,0.4,0.395,-0.126
-9.4968e-02,0.39,0.36,0.395,-0.134
-9.4960e-02,0.39,0.4,0.395,-0.126
-9.4952e-02,0.39,0.36,0.395,-0.126
-9.4944e-02,0.39,0.36,0.395,-0.134
-9.4936e-02,0.43,0.36,0.395,-0.126
-9.4928e-02,0.39,0.4,0.395,-0.126
-9.4920e-02,0.39,0.36,0.395,-0.126
-9.4912e-02,0.39,0.36,0.395,-0.134
-9.4904e-02,0.39,0.36,0.395,-0.126
-9.4896e-02,0.39,0.36,0.415,-0.126
-9.4888e-02,0.39,0.32,0.395,-0.126
-9.4880e-02,0.35,0.32,0.395,-0.126
-9.4872e-02,0.39,0.36,0.395,-0.134
-9.4864e-02,0.39,0.36,0.395,-0.126
-9.4856e-02,0.39,0.32,0.395,-0.126
-9.4848e-02,0.35,0.36,0.395,-0.126
-9.4840e-02,0.39,0.36,0.375,-0.126
-9.4832e-02,0.35,0.36,0.395,-0.126
-9.4824e-02,0.39,0.32,0.395,-0.126
-9.4816e-02,0.39,0.36,0.395,-0.126
-9.4808e-02,0.43,0.36,0.395,-0.126
-9.4800e-02,0.39,0.36,0.395,-0.134
-9.4792e-02,0.39,0.32,0.375,-0.126
-9.4784e-02,0.39,0.36,0.395,-0.126
-9.4776e-02,0.39,0.4,0.395,-0.126
-9.4768e-02,0.39,0.36,0.395,-0.126
-9.4760e-02,0.39,0.36,0.395,-0.134
-9.4752e-02,0.39,0.36,0.395,-0.134
-9.4744e-02,0.39,0.36,0.395,-0.126
-9.4736e-02,0.39,0.36,0.395,-0.134
-9.4728e-02,0.39,0.36,0.395,-0.134
-9.4720e-02,0.39,0.36,0.395,-0.126
-9.4712e-02,0.39,0.32,0.375,-0.126
-9.4704e-02,0.11,0.16,0.335,-0.126
-9.4696e-02,-0.00999995,-0.04,0.255,-0.142
-9.4688e-02,-0.00999995,-0.04,0.255,-0.182
-9.4680e-02,-0.00999995,-0.04,0.255,-0.182
-9.4672e-02,-0.00999995,-0.04,0.255,-0.166
-9.4664e-02,-0.00999995,-0.04,0.255,-0.182
-9.4656e-02,-0.00999995,-0.08,0.275,-0.174
-9.4648e-02,0.03,-0.04,0.255,-0.182
-9.4640e-02,-0.00999995,-0.04,0.255,-0.174
-9.4632e-02,-0.00999995,-0.04,0.255,-0.182
-9.4624e-02,-0.00999995,-0.04,0.255,-0.182
-9.4616e-02,-0.00999995,-0.04,0.255,-0.174
-9.4608e-02,-0.00999995,-0.04,0.255,-0.182
-9.4600e-02,-0.41,-0.4,-0.00499999,-0.158
-9.4592e-02,-0.41,-0.44,-0.025,-0.134
-9.4584e-02,-0.41,-0.44,-0.00499999,-0.142
-9.4576e-02,-0.41,-0.4,-0.00499999,-0.126
-9.4568e-02,-0.41,-0.4,-0.00499999,-0.134
-9.4560e-02,-0.41,-0.44,-0.00499999,-0.126
-9.4552e-02,-0.37,-0.4,-0.00499999,-0.126
-9.4544e-02,-0.41,-0.44,-0.00499999,-0.134
-9.4536e-02,-0.41,-0.44,-0.00499999,-0.126
-9.4528e-02,-0.41,-0.4,-0.00499999,-0.126
-9.4520e-02,-0.41,-0.4,-0.00499999,-0.126
-9.4512e-02,-0.41,-0.4,-0.00499999,-0.134
-9.4504e-02,-0.37,-0.4,-0.00499999,-0.134
-9.4496e-02,-0.37,-0.4,-0.00499999,-0.126
-9.4488e-02,-0.41,-0.4,-0.00499999,-0.126
-9.4480e-02,-0.41,-0.4,-0.00499999,-0.126
-9.4472e-02,-0.41,-0.44,-0.00499999,-0.134
-9.4464e-02,-0.41,-0.44,-0.00499999,-0.126
-9.4456e-02,-0.41,-0.4,-0.00499999,-0.134
-9.4448e-02,-0.41,-0.44,-0.00499999,-0.126
-9.4440e-02,-0.41,-0.4,-0.00499999,-0.126
-9.4432e-02,-0.41,-0.4,-0.00499999,-0.126
-9.4424e-02,-0.41,-0.4,-0.00499999,-0.134
-9.4416e-02,-0.41,-0.4,-0.00499999,-0.126
-9.4408e-02,-0.37,-0.44,-0.00499999,-0.134
-9.4400e-02,-0.37,-0.4,-0.00499999,-0.126
-9.4392e-02,-0.41,-0.44,-0.00499999,-0.126
-9.4384e-02,-0.41,-0.4,-0.00499999,-0.134
-9.4376e-02,-0.41,-0.4,-0.00499999,-0.134
-9.4368e-02,-0.41,-0.44,-0.00499999,-0.126
-9.4360e-02,-0.41,-0.4,-0.00499999,-0.126
-9.4352e-02,-0.37,-0.4,-0.00499999,-0.126
-9.4344e-02,-0.41,-0.44,-0.00499999,-0.126
-9.4336e-02,-0.41,-0.44,-0.00499999,-0.126
-9.4328e-02,-0.41,-0.4,-0.00499999,-0.126
-9.4320e-02,-0.41,-0.44,-0.00499999,-0.126
-9.4312e-02,-0.41,-0.4,-0.00499999,-0.126
-9.4304e-02,-0.41,-0.44,-0.00499999,-0.126
-9.4296e-02,-0.41,-0.4,-0.00499999,-0.134
-9.4288e-02,-0.41,-0.4,-0.00499999,-0.126
-9.4280e-02,-0.41,-0.4,-0.00499999,-0.134
-9.4272e-02,-0.41,-0.44,-0.00499999,-0.126
-9.4264e-02,-0.41,-0.4,-0.00499999,-0.134
-9.4256e-02,-0.41,-0.4,-0.00499999,-0.126
-9.4248e-02,-0.41,-0.4,-0.00499999,-0.134
-9.4240e-02,-0.41,-0.4,-0.025,-0.134
-9.4232e-02,-0.41,-0.4,-0.00499999,-0.126
-9.4224e-02,-0.41,-0.4,-0.00499999,-0.134
-9.4216e-02,-0.41,-0.4,-0.00499999,-0.126
-9.4208e-02,-0.41,-0.44,-0.00499999,-0.126
-9.4200e-02,-0.41,-0.4,-0.00499999,-0.126
-9.4192e-02,-0.41,-0.4,-0.00499999,-0.126
-9.4184e-02,-0.41,-0.4,-0.00499999,-0.134
-9.4176e-02,-0.37,-0.44,-0.00499999,-0.134
-9.4168e-02,-0.37,-0.4,-0.00499999,-0.126
-9.4160e-02,-0.41,-0.4,-0.00499999,-0.126
-9.4152e-02,-0.00999995,-0.04,0.115,-0.134
-9.4144e-02,-0.00999995,-0.04,0.115,-0.102
-9.4136e-02,-0.00999995,-5.96046e-09,0.135,-0.062
-9.4128e-02,-0.00999995,-5.96046e-09,0.115,-0.078
-9.4120e-02,-0.00999995,-0.04,0.135,-0.086
-9.4112e-02,-0.00999995,-0.04,0.135,-0.086
-9.4104e-02,-0.00999995,-0.04,0.135,-0.078
-9.4096e-02,-0.00999995,-0.04,0.135,-0.078
-9.4088e-02,-0.00999995,-0.04,0.135,-0.078
-9.4080e-02,-0.00999995,-0.04,0.135,-0.086
-9.4072e-02,-0.00999995,-0.04,0.135,-0.078
-9.4064e-02,-0.00999995,-0.04,0.135,-0.078
-9.4056e-02,-0.00999995,-5.96046e-09,0.135,-0.078
-9.4048e-02,0.03,-5.96046e-09,0.135,-0.078
-9.4040e-02,0.03,-5.96046e-09,0.115,-0.078
-9.4032e-02,-0.00999995,-0.04,0.135,-0.078
-9.4024e-02,-0.00999995,-0.04,0.135,-0.078
-9.4016e-02,-0.00999995,-0.04,0.115,-0.078
-9.4008e-02,-0.05,-0.04,0.135,-0.078
-9.4000e-02,-0.00999995,-0.04,0.135,-0.086
-9.3992e-02,-0.00999995,-0.04,0.135,-0.078
-9.3984e-02,0.03,-0.04,0.135,-0.078
-9.3976e-02,-0.00999995,-0.04,0.115,-0.078
-9.3968e-02,-0.00999995,-5.96046e-09,0.115,-0.078
-9.3960e-02,0.03,-0.04,0.135,-0.086
-9.3952e-02,0.03,-0.04,0.135,-0.078
-9.3944e-02,-0.00999995,-5.96046e-09,0.135,-0.078
-9.3936e-02,-0.00999995,-0.04,0.135,-0.078
-9.3928e-02,0.03,-0.04,0.115,-0.078
-9.3920e-02,-0.00999995,-5.96046e-09,0.135,-0.078
-9.3912e-02,-0.00999995,-0.04,0.135,-0.078
-9.3904e-02,-0.00999995,-0.04,0.135,-0.078
-9.3896e-02,0.03,-0.04,0.135,-0.086
-9.3888e-02,0.03,-0.04,0.135,-0.078
-9.3880e-02,-0.00999995,-0.04,0.135,-0.078
-9.3872e-02,0.03,-0.04,0.135,-0.078
-9.3864e-02,-0.00999995,-0.04,0.135,-0.078
-9.3856e-02,-0.00999995,-5.96046e-09,0.135,-0.078
-9.3848e-02,-0.00999995,-0.04,0.135,-0.078
-9.3840e-02,-0.00999995,-0.04,0.135,-0.078
-9.3832e-02,-0.00999995,-0.04,0.135,-0.086
-9.3824e-02,-0.00999995,-0.04,0.135,-0.078
-9.3816e-02,0.03,-5.96046e-09,0.135,-0.078
-9.3808e-02,0.03,-0.04,0.135,-0.078
-9.3800e-02,-0.00999995,-0.04,0.135,-0.078
-9.3792e-02,-0.00999995,-0.08,0.115,-0.078
-9.3784e-02,0.03,-5.96046e-09,0.135,-0.078
-9.3776e-02,-0.00999995,-5.96046e-09,0.115,-0.07
-9.3768e-02,-0.00999995,-0.04,0.135,-0.078
-9.3760e-02,0.03,-5.96046e-09,0.135,-0.078
-9.3752e-02,-0.00999995,-0.08,0.135,-0.078
-9.3744e-02,-0.00999995,-0.04,0.135,-0.078
-9.3736e-02,-0.00999995,-0.04,0.135,-0.078
-9.3728e-02,-0.00999995,-0.04,0.135,-0.078
-9.3720e-02,-0.00999995,-0.04,0.115,-0.078
-9.3712e-02,-0.00999995,-0.08,0.135,-0.078
-9.3704e-02,-0.00999995,-0.04,0.135,-0.078
-9.3696e-02,-0.00999995,-5.96046e-09,0.115,-0.078
-9.3688e-02,-0.00999995,-0.04,0.115,-0.078
-9.3680e-02,0.03,-0.04,0.135,-0.078
-9.3672e-02,0.03,-5.96046e-09,0.135,-0.078
-9.3664e-02,-0.00999995,-0.04,0.135,-0.078
-9.3656e-02,-0.00999995,-5.96046e-09,0.135,-0.078
-9.3648e-02,-0.00999995,-0.04,0.135,-0.078
-9.3640e-02,-0.00999995,-0.04,0.115,-0.078
-9.3632e-02,-0.00999995,-0.04,0.115,-0.078
-9.3624e-02,-0.00999995,-5.96046e-09,0.115,-0.086
-9.3616e-02,-0.00999995,-0.04,0.135,-0.078
-9.3608e-02,-0.00999995,-0.04,0.135,-0.078
-9.3600e-02,-0.05,-0.04,0.115,-0.078
-9.3592e-02,-0.00999995,-5.96046e-09,0.135,-0.078
-9.3584e-02,-0.00999995,-5.96046e-09,0.115,-0.078
-9.3576e-02,-0.00999995,-0.04,0.135,-0.078
-9.3568e-02,-0.00999995,-0.04,0.135,-0.078
-9.3560e-02,-0.00999995,-0.04,0.135,-0.078
-9.3552e-02,-0.00999995,-0.04,0.135,-0.078
-9.3544e-02,-0.00999995,-0.04,0.135,-0.078
-9.3536e-02,-0.00999995,-5.96046e-09,0.135,-0.078
-9.3528e-02,-0.00999995,-0.04,0.115,-0.086
-9.3520e-02,-0.00999995,-0.04,0.135,-0.078
-9.3512e-02,0.03,-0.04,0.135,-0.078
-9.3504e-02,-0.00999995,-0.04,0.115,-0.086
-9.3496e-02,-0.00999995,-5.96046e-09,0.135,-0.078
-9.3488e-02,-0.00999995,-0.04,0.135,-0.078
-9.3480e-02,-0.00999995,-0.04,0.135,-0.078
-9.3472e-02,-0.00999995,-0.04,0.135,-0.078
-9.3464e-02,-0.00999995,-0.04,0.115,-0.078
-9.3456e-02,-0.00999995,-0.04,0.135,-0.078
-9.3448e-02,0.03,-0.04,0.135,-0.078
-9.3440e-02,-0.00999995,-0.04,0.135,-0.086
-9.3432e-02,-0.00999995,-0.04,0.115,-0.078
-9.3424e-02,-0.00999995,-5.96046e-09,0.135,-0.078
-9.3416e-02,0.03,-5.96046e-09,0.135,-0.078
-9.3408e-02,0.03,-0.04,0.135,-0.078
-9.3400e-02,-0.37,-0.4,-0.00499999,-0.118
-9.3392e-02,-0.41,-0.4,-0.00499999,-0.126
-9.3384e-02,-0.37,-0.4,-0.00499999,-0.102
-9.3376e-02,-0.41,-0.4,-0.00499999,-0.134
-9.3368e-02,-0.41,-0.44,0.015,-0.126
