试验5.10（上了540v）/TEK00001.CSV

Model,TBS2104X
Firmware Version,v1.31.14

Point Format,Y
Horizontal Units,S
Horizontal Scale,0.01
Sample Interval,8e-06
Filter Frequency,2e+08
Record Length,20000
Gating,0.0% to 100.0%
Probe Attenuation,1
Vertical Units,V
Vertical Offset,0
Vertical Scale,0.5
Label,
TIME,CH1
-9.5000e-02,1.805
-9.4992e-02,1.805
-9.4984e-02,1.825
-9.4976e-02,1.825
-9.4968e-02,1.805
-9.4960e-02,1.825
-9.4952e-02,1.825
-9.4944e-02,1.825
-9.4936e-02,1.805
-9.4928e-02,1.825
-9.4920e-02,1.825
-9.4912e-02,1.805
-9.4904e-02,1.825
-9.4896e-02,1.805
-9.4888e-02,1.805
-9.4880e-02,1.825
-9.4872e-02,1.825
-9.4864e-02,1.825
-9.4856e-02,1.825
-9.4848e-02,1.805
-9.4840e-02,1.825
-9.4832e-02,1.805
-9.4824e-02,1.805
-9.4816e-02,1.825
-9.4808e-02,1.805
-9.4800e-02,1.805
-9.4792e-02,1.805
-9.4784e-02,1.825
-9.4776e-02,1.825
-9.4768e-02,1.805
-9.4760e-02,1.805
-9.4752e-02,1.825
-9.4744e-02,1.805
-9.4736e-02,1.825
-9.4728e-02,1.825
-9.4720e-02,1.825
-9.4712e-02,1.805
-9.4704e-02,1.845
-9.4696e-02,1.825
-9.4688e-02,1.825
-9.4680e-02,1.825
-9.4672e-02,1.825
-9.4664e-02,1.825
-9.4656e-02,1.805
-9.4648e-02,1.845
-9.4640e-02,1.825
-9.4632e-02,1.825
-9.4624e-02,1.825
-9.4616e-02,1.805
-9.4608e-02,1.825
-9.4600e-02,1.825
-9.4592e-02,1.825
-9.4584e-02,1.805
-9.4576e-02,1.825
-9.4568e-02,1.825
-9.4560e-02,1.805
-9.4552e-02,1.805
-9.4544e-02,1.805
-9.4536e-02,1.825
-9.4528e-02,1.825
-9.4520e-02,1.805
-9.4512e-02,1.825
-9.4504e-02,1.825
-9.4496e-02,1.825
-9.4488e-02,1.805
-9.4480e-02,1.825
-9.4472e-02,1.825
-9.4464e-02,1.805
-9.4456e-02,1.805
-9.4448e-02,1.825
-9.4440e-02,1.825
-9.4432e-02,1.805
-9.4424e-02,1.805
-9.4416e-02,1.825
-9.4408e-02,1.825
-9.4400e-02,1.825
-9.4392e-02,1.825
-9.4384e-02,1.805
-9.4376e-02,1.825
-9.4368e-02,1.825
-9.4360e-02,1.805
-9.4352e-02,1.805
-9.4344e-02,1.825
-9.4336e-02,1.825
-9.4328e-02,1.825
-9.4320e-02,1.825
-9.4312e-02,1.825
-9.4304e-02,1.805
-9.4296e-02,1.805
-9.4288e-02,1.805
-9.4280e-02,1.805
-9.4272e-02,1.825
-9.4264e-02,1.805
-9.4256e-02,1.845
-9.4248e-02,1.825
-9.4240e-02,1.845
-9.4232e-02,1.805
-9.4224e-02,1.805
-9.4216e-02,1.825
-9.4208e-02,1.825
-9.4200e-02,1.825
-9.4192e-02,1.825
-9.4184e-02,1.805
-9.4176e-02,1.825
-9.4168e-02,1.805
-9.4160e-02,1.825
-9.4152e-02,1.805
-9.4144e-02,1.825
-9.4136e-02,1.825
-9.4128e-02,1.825
-9.4120e-02,1.825
-9.4112e-02,1.825
-9.4104e-02,1.805
-9.4096e-02,1.825
-9.4088e-02,1.825
-9.4080e-02,1.805
-9.4072e-02,1.805
-9.4064e-02,1.805
-9.4056e-02,1.825
-9.4048e-02,1.825
-9.4040e-02,1.825
-9.4032e-02,1.805
-9.4024e-02,1.805
-9.4016e-02,1.805
-9.4008e-02,1.825
-9.4000e-02,1.805
-9.3992e-02,1.805
-9.3984e-02,1.805
-9.3976e-02,1.805
-9.3968e-02,1.805
-9.3960e-02,1.825
-9.3952e-02,1.825
-9.3944e-02,1.805
-9.3936e-02,1.845
-9.3928e-02,1.805
-9.3920e-02,1.805
-9.3912e-02,1.825
-9.3904e-02,1.825
-9.3896e-02,1.825
-9.3888e-02,1.825
-9.3880e-02,1.805
-9.3872e-02,1.805
-9.3864e-02,1.805
-9.3856e-02,1.825
-9.3848e-02,1.825
-9.3840e-02,1.805
-9.3832e-02,1.805
-9.3824e-02,1.805
-9.3816e-02,1.805
-9.3808e-02,1.805
-9.3800e-02,1.825
-9.3792e-02,1.825
-9.3784e-02,1.805
-9.3776e-02,1.825
-9.3768e-02,1.825
-9.3760e-02,1.825
-9.3752e-02,1.825
-9.3744e-02,1.825
-9.3736e-02,1.805
-9.3728e-02,1.805
-9.3720e-02,1.825
-9.3712e-02,1.825
-9.3704e-02,1.805
-9.3696e-02,1.825
-9.3688e-02,1.825
-9.3680e-02,1.825
-9.3672e-02,1.805
-9.3664e-02,1.805
-9.3656e-02,1.805
-9.3648e-02,1.825
-9.3640e-02,1.825
-9.3632e-02,1.825
-9.3624e-02,1.805
-9.3616e-02,1.805
-9.3608e-02,1.805
-9.3600e-02,1.825
-9.3592e-02,1.825
-9.3584e-02,1.825
-9.3576e-02,1.805
-9.3568e-02,1.825
-9.3560e-02,1.805
-9.3552e-02,1.805
-9.3544e-02,1.825
-9.3536e-02,1.825
-9.3528e-02,1.825
-9.3520e-02,1.825
-9.3512e-02,1.805
-9.3504e-02,1.805
-9.3496e-02,1.805
-9.3488e-02,1.825
-9.3480e-02,1.825
-9.3472e-02,1.825
-9.3464e-02,1.805
-9.3456e-02,1.805
-9.3448e-02,1.805
-9.3440e-02,1.825
-9.3432e-02,1.825
-9.3424e-02,1.805
-9.3416e-02,1.825
-9.3408e-02,1.825
-9.3400e-02,1.825
-9.3392e-02,1.825
-9.3384e-02,1.805
-9.3376e-02,0.905
-9.3368e-02,0.885
-9.3360e-02,0.865
-9.3352e-02,0.885
-9.3344e-02,0.845
-9.3336e-02,0.865
-9.3328e-02,0.865
-9.3320e-02,0.865
-9.3312e-02,0.845
-9.3304e-02,0.865
-9.3296e-02,0.865
-9.3288e-02,0.845
-9.3280e-02,0.865
-9.3272e-02,0.865
-9.3264e-02,0.885
-9.3256e-02,0.845
-9.3248e-02,0.865
-9.3240e-02,0.865
-9.3232e-02,0.865
-9.3224e-02,0.865
-9.3216e-02,0.845
-9.3208e-02,0.865
-9.3200e-02,0.865
-9.3192e-02,0.845
-9.3184e-02,0.865
-9.3176e-02,0.865
-9.3168e-02,0.865
-9.3160e-02,0.845
-9.3152e-02,0.845
-9.3144e-02,0.865
-9.3136e-02,0.845
-9.3128e-02,0.865
-9.3120e-02,0.865
-9.3112e-02,0.865
-9.3104e-02,0.865
-9.3096e-02,0.865
-9.3088e-02,0.865
-9.3080e-02,0.865
-9.3072e-02,0.865
-9.3064e-02,0.865
-9.3056e-02,0.865
-9.3048e-02,0.845
-9.3040e-02,0.865
-9.3032e-02,0.865
-9.3024e-02,0.885
-9.3016e-02,0.865
-9.3008e-02,0.865
-9.3000e-02,0.865
-9.2992e-02,0.865
-9.2984e-02,0.865
-9.2976e-02,0.865
-9.2968e-02,0.845
-9.2960e-02,0.865
-9.2952e-02,0.865
-9.2944e-02,0.865
-9.2936e-02,0.865
-9.2928e-02,0.865
-9.2920e-02,0.865
-9.2912e-02,0.865
-9.2904e-02,0.865
-9.2896e-02,0.845
-9.2888e-02,0.845
-9.2880e-02,0.865
-9.2872e-02,0.845
-9.2864e-02,0.865
-9.2856e-02,0.865
-9.2848e-02,0.885
-9.2840e-02,0.865
-9.2832e-02,0.865
-9.2824e-02,0.845
-9.2816e-02,0.865
-9.2808e-02,0.865
-9.2800e-02,0.845
-9.2792e-02,0.865
-9.2784e-02,0.845
-9.2776e-02,0.865
-9.2768e-02,0.865
-9.2760e-02,0.865
-9.2752e-02,0.865
-9.2744e-02,0.865
-9.2736e-02,0.865
-9.2728e-02,0.885
-9.2720e-02,0.845
-9.2712e-02,0.865
-9.2704e-02,0.865
-9.2696e-02,0.865
-9.2688e-02,0.865
-9.2680e-02,0.865
-9.2672e-02,0.865
-9.2664e-02,0.865
-9.2656e-02,0.865
-9.2648e-02,0.865
-9.2640e-02,0.865
-9.2632e-02,0.845
-9.2624e-02,1.785
-9.2616e-02,1.805
-9.2608e-02,1.825
-9.2600e-02,1.805
-9.2592e-02,1.825
-9.2584e-02,1.825
-9.2576e-02,1.825
-9.2568e-02,1.825
-9.2560e-02,1.825
-9.2552e-02,1.825
-9.2544e-02,1.825
-9.2536e-02,1.825
-9.2528e-02,1.825
-9.2520e-02,1.805
-9.2512e-02,1.825
-9.2504e-02,1.805
-9.2496e-02,1.825
-9.2488e-02,1.805
-9.2480e-02,1.825
-9.2472e-02,1.805
-9.2464e-02,1.805
-9.2456e-02,1.805
-9.2448e-02,1.825
-9.2440e-02,1.825
-9.2432e-02,1.805
-9.2424e-02,1.845
-9.2416e-02,1.805
-9.2408e-02,1.825
-9.2400e-02,1.825
-9.2392e-02,1.805
-9.2384e-02,1.825
-9.2376e-02,1.805
-9.2368e-02,1.825
-9.2360e-02,1.825
-9.2352e-02,1.805
-9.2344e-02,1.805
-9.2336e-02,1.825
-9.2328e-02,1.825
-9.2320e-02,1.825
-9.2312e-02,1.805
-9.2304e-02,1.805
-9.2296e-02,1.805
-9.2288e-02,1.825
-9.2280e-02,1.805
-9.2272e-02,1.825
-9.2264e-02,1.805
-9.2256e-02,1.825
-9.2248e-02,1.825
-9.2240e-02,1.825
-9.2232e-02,1.805
-9.2224e-02,1.825
-9.2216e-02,1.805
-9.2208e-02,1.825
-9.2200e-02,1.805
-9.2192e-02,1.825
-9.2184e-02,1.825
-9.2176e-02,1.805
-9.2168e-02,1.805
-9.2160e-02,1.805
-9.2152e-02,1.805
-9.2144e-02,1.825
-9.2136e-02,1.825
-9.2128e-02,1.825
-9.2120e-02,1.825
-9.2112e-02,1.825
-9.2104e-02,1.825
-9.2096e-02,1.805
-9.2088e-02,1.825
-9.2080e-02,1.825
-9.2072e-02,0.885
-9.2064e-02,0.885
-9.2056e-02,0.865
-9.2048e-02,0.865
-9.2040e-02,0.885
-9.2032e-02,0.845
-9.2024e-02,0.845
-9.2016e-02,0.845
-9.2008e-02,0.845
-9.2000e-02,0.865
-9.1992e-02,0.845
-9.1984e-02,0.865
-9.1976e-02,0.865
-9.1968e-02,0.845
-9.1960e-02,0.865
-9.1952e-02,0.845
-9.1944e-02,0.885
-9.1936e-02,0.845
-9.1928e-02,0.845
-9.1920e-02,0.865
-9.1912e-02,0.865
-9.1904e-02,0.865
-9.1896e-02,0.865
-9.1888e-02,0.865
-9.1880e-02,0.845
-9.1872e-02,0.845
-9.1864e-02,0.865
-9.1856e-02,0.865
-9.1848e-02,0.865
-9.1840e-02,0.845
-9.1832e-02,0.845
-9.1824e-02,0.885
-9.1816e-02,0.865
-9.1808e-02,0.865
-9.1800e-02,0.865
-9.1792e-02,0.865
-9.1784e-02,0.845
-9.1776e-02,0.865
-9.1768e-02,0.865
-9.1760e-02,0.845
-9.1752e-02,0.845
-9.1744e-02,0.865
-9.1736e-02,0.865
-9.1728e-02,0.845
-9.1720e-02,0.865
-9.1712e-02,0.865
-9.1704e-02,0.865
-9.1696e-02,0.865
-9.1688e-02,0.845
-9.1680e-02,0.865
-9.1672e-02,0.865
-9.1664e-02,0.865
-9.1656e-02,0.865
-9.1648e-02,0.865
-9.1640e-02,0.845
-9.1632e-02,0.865
-9.1624e-02,0.845
-9.1616e-02,0.865
-9.1608e-02,0.865
-9.1600e-02,0.865
-9.1592e-02,0.845
-9.1584e-02,0.865
-9.1576e-02,0.845
-9.1568e-02,0.865
-9.1560e-02,0.845
-9.1552e-02,0.845
-9.1544e-02,0.845
-9.1536e-02,0.845
-9.1528e-02,0.845
-9.1520e-02,0.865
-9.1512e-02,0.845
-9.1504e-02,0.865
-9.1496e-02,0.845
-9.1488e-02,0.865
-9.1480e-02,0.865
-9.1472e-02,0.845
-9.1464e-02,0.845
-9.1456e-02,0.865
-9.1448e-02,0.845
-9.1440e-02,0.845
-9.1432e-02,0.845
-9.1424e-02,0.845
-9.1416e-02,0.865
-9.1408e-02,0.865
-9.1400e-02,0.865
-9.1392e-02,0.865
-9.1384e-02,0.865
-9.1376e-02,0.885
-9.1368e-02,0.845
-9.1360e-02,0.865
-9.1352e-02,0.865
-9.1344e-02,0.845
-9.1336e-02,0.865
-9.1328e-02,0.865
-9.1320e-02,0.865
-9.1312e-02,0.845
-9.1304e-02,0.865
-9.1296e-02,0.845
-9.1288e-02,0.865
-9.1280e-02,0.845
-9.1272e-02,0.845
-9.1264e-02,0.845
-9.1256e-02,0.865
-9.1248e-02,0.845
-9.1240e-02,0.865
-9.1232e-02,0.865
-9.1224e-02,0.845
-9.1216e-02,0.865
-9.1208e-02,0.865
-9.1200e-02,0.865
-9.1192e-02,0.845
-9.1184e-02,0.845
-9.1176e-02,0.845
-9.1168e-02,0.845
-9.1160e-02,0.865
-9.1152e-02,0.865
-9.1144e-02,0.845
-9.1136e-02,0.845
-9.1128e-02,0.845
-9.1120e-02,0.865
-9.1112e-02,0.845
-9.1104e-02,0.865
-9.1096e-02,0.865
-9.1088e-02,0.865
-9.1080e-02,0.845
-9.1072e-02,0.845
-9.1064e-02,0.845
-9.1056e-02,0.865
-9.1048e-02,0.845
-9.1040e-02,0.865
-9.1032e-02,0.845
-9.1024e-02,0.845
-9.1016e-02,0.845
-9.1008e-02,0.845
-9.1000e-02,0.865
-9.0992e-02,0.885
-9.0984e-02,0.865
-9.0976e-02,0.865
-9.0968e-02,0.845
-9.0960e-02,0.865
-9.0952e-02,0.865
-9.0944e-02,0.865
-9.0936e-02,0.845
-9.0928e-02,0.865
-9.0920e-02,0.865
-9.0912e-02,0.845
-9.0904e-02,0.865
-9.0896e-02,0.865
-9.0888e-02,0.845
-9.0880e-02,0.845
-9.0872e-02,0.865
-9.0864e-02,0.865
-9.0856e-02,0.865
-9.0848e-02,0.865
-9.0840e-02,0.865
-9.0832e-02,0.865
-9.0824e-02,0.865
-9.0816e-02,0.845
-9.0808e-02,0.865
-9.0800e-02,0.865
-9.0792e-02,0.885
-9.0784e-02,0.865
-9.0776e-02,0.865
-9.0768e-02,0.865
-9.0760e-02,0.845
-9.0752e-02,0.845
-9.0744e-02,0.865
-9.0736e-02,0.865
-9.0728e-02,0.865
-9.0720e-02,0.845
-9.0712e-02,0.865
-9.0704e-02,0.845
-9.0696e-02,0.865
-9.0688e-02,0.865
-9.0680e-02,0.845
-9.0672e-02,0.865
-9.0664e-02,0.865
-9.0656e-02,0.865
-9.0648e-02,0.845
-9.0640e-02,0.865
-9.0632e-02,0.845
-9.0624e-02,0.865
-9.0616e-02,0.865
-9.0608e-02,0.845
-9.0600e-02,0.865
-9.0592e-02,0.845
-9.0584e-02,0.845
-9.0576e-02,0.865
-9.0568e-02,0.865
-9.0560e-02,0.845
-9.0552e-02,0.865
-9.0544e-02,0.865
-9.0536e-02,0.885
-9.0528e-02,0.865
-9.0520e-02,0.865
-9.0512e-02,0.865
-9.0504e-02,0.865
-9.0496e-02,0.865
-9.0488e-02,0.865
-9.0480e-02,0.845
-9.0472e-02,0.865
-9.0464e-02,0.845
-9.0456e-02,0.865
-9.0448e-02,0.845
-9.0440e-02,0.865
-9.0432e-02,0.865
-9.0424e-02,0.845
-9.0416e-02,0.845
-9.0408e-02,0.865
-9.0400e-02,0.845
-9.0392e-02,0.845
-9.0384e-02,0.865
-9.0376e-02,0.865
-9.0368e-02,0.865
-9.0360e-02,0.845
-9.0352e-02,0.845
-9.0344e-02,0.865
-9.0336e-02,0.845
-9.0328e-02,0.845
-9.0320e-02,0.865
-9.0312e-02,0.845
-9.0304e-02,0.865
-9.0296e-02,0.845
-9.0288e-02,0.845
-9.0280e-02,0.845
-9.0272e-02,0.865
-9.0264e-02,0.865
-9.0256e-02,0.885
-9.0248e-02,0.845
-9.0240e-02,0.865
-9.0232e-02,0.865
-9.0224e-02,0.865
-9.0216e-02,0.865
-9.0208e-02,0.865
-9.0200e-02,0.865
-9.0192e-02,0.865
-9.0184e-02,0.845
-9.0176e-02,0.865
-9.0168e-02,0.845
-9.0160e-02,0.865
-9.0152e-02,0.845
-9.0144e-02,0.865
-9.0136e-02,0.865
-9.0128e-02,0.865
-9.0120e-02,0.845
-9.0112e-02,0.845
-9.0104e-02,0.865
-9.0096e-02,0.865
-9.0088e-02,0.865
-9.0080e-02,0.845
-9.0072e-02,0.865
-9.0064e-02,0.865
-9.0056e-02,0.865
-9.0048e-02,0.865
-9.0040e-02,0.865
-9.0032e-02,0.865
-9.0024e-02,0.865
-9.0016e-02,0.865
-9.0008e-02,0.845
-9.0000e-02,0.865
-8.9992e-02,0.865
-8.9984e-02,0.865
-8.9976e-02,0.865
-8.9968e-02,0.845
-8.9960e-02,0.845
-8.9952e-02,0.845
-8.9944e-02,0.865
-8.9936e-02,0.865
-8.9928e-02,0.865
-8.9920e-02,0.865
-8.9912e-02,0.845
-8.9904e-02,0.865
-8.9896e-02,0.865
-8.9888e-02,0.865
-8.9880e-02,0.845
-8.9872e-02,0.865
-8.9864e-02,0.865
-8.9856e-02,0.845
-8.9848e-02,0.865
-8.9840e-02,0.885
-8.9832e-02,0.865
-8.9824e-02,0.865
-8.9816e-02,0.865
-8.9808e-02,0.845
-8.9800e-02,0.865
-8.9792e-02,0.865
-8.9784e-02,0.845
-8.9776e-02,0.845
-8.9768e-02,0.845
-8.9760e-02,0.845
-8.9752e-02,0.865
-8.9744e-02,0.865
-8.9736e-02,0.845
-8.9728e-02,0.865
-8.9720e-02,0.865
-8.9712e-02,0.865
-8.9704e-02,0.865
-8.9696e-02,0.865
-8.9688e-02,0.865
-8.9680e-02,0.845
-8.9672e-02,0.845
-8.9664e-02,0.845
-8.9656e-02,0.845
-8.9648e-02,0.865
-8.9640e-02,0.845
-8.9632e-02,0.865
-8.9624e-02,0.845
-8.9616e-02,0.845
-8.9608e-02,0.845
-8.9600e-02,0.865
-8.9592e-02,0.865
-8.9584e-02,0.865
-8.9576e-02,0.845
-8.9568e-02,0.865
-8.9560e-02,0.865
-8.9552e-02,0.845
-8.9544e-02,0.865
-8.9536e-02,0.845
-8.9528e-02,0.845
-8.9520e-02,0.865
-8.9512e-02,0.845
-8.9504e-02,0.845
-8.9496e-02,0.865
-8.9488e-02,0.865
-8.9480e-02,0.845
-8.9472e-02,0.865
-8.9464e-02,0.865
-8.9456e-02,0.845
-8.9448e-02,0.845
-8.9440e-02,0.845
-8.9432e-02,0.845
-8.9424e-02,0.865
-8.9416e-02,0.865
-8.9408e-02,0.845
-8.9400e-02,0.865
-8.9392e-02,0.845
-8.9384e-02,0.845
-8.9376e-02,0.865
-8.9368e-02,0.865
-8.9360e-02,0.845
-8.9352e-02,0.865
-8.9344e-02,0.845
-8.9336e-02,0.845
-8.9328e-02,0.845
-8.9320e-02,0.865
-8.9312e-02,0.845
-8.9304e-02,0.865
-8.9296e-02,0.845
-8.9288e-02,0.845
-8.9280e-02,0.885
-8.9272e-02,0.845
-8.9264e-02,0.865
-8.9256e-02,0.845
-8.9248e-02,0.845
-8.9240e-02,0.885
-8.9232e-02,0.865
-8.9224e-02,0.865
-8.9216e-02,0.845
-8.9208e-02,0.865
-8.9200e-02,0.845
-8.9192e-02,0.845
-8.9184e-02,0.845
-8.9176e-02,0.865
-8.9168e-02,0.845
-8.9160e-02,0.845
-8.9152e-02,0.845
-8.9144e-02,0.865
-8.9136e-02,0.865
-8.9128e-02,0.845
-8.9120e-02,0.845
-8.9112e-02,0.845
-8.9104e-02,0.845
-8.9096e-02,0.865
-8.9088e-02,0.865
-8.9080e-02,0.845
-8.9072e-02,0.865
-8.9064e-02,0.845
-8.9056e-02,0.865
-8.9048e-02,0.845
-8.9040e-02,0.845
-8.9032e-02,0.865
-8.9024e-02,0.845
-8.9016e-02,0.865
-8.9008e-02,0.845
-8.9000e-02,0.845
-8.8992e-02,0.845
-8.8984e-02,0.865
-8.8976e-02,0.865
-8.8968e-02,0.845
-8.8960e-02,0.845
-8.8952e-02,0.865
-8.8944e-02,0.865
-8.8936e-02,0.845
-8.8928e-02,0.845
-8.8920e-02,0.845
-8.8912e-02,0.845
-8.8904e-02,0.865
-8.8896e-02,0.845
-8.8888e-02,0.865
-8.8880e-02,0.845
-8.8872e-02,0.845
-8.8864e-02,0.845
-8.8856e-02,0.845
-8.8848e-02,0.865
-8.8840e-02,0.845
-8.8832e-02,0.845
-8.8824e-02,0.025
-8.8816e-02,0.025
-8.8808e-02,0.005
-8.8800e-02,0.005
-8.8792e-02,0.005
-8.8784e-02,0.005
-8.8776e-02,0.005
-8.8768e-02,0.005
-8.8760e-02,0.025
-8.8752e-02,0.005
-8.8744e-02,0.005
-8.8736e-02,0.025
-8.8728e-02,0.005
-8.8720e-02,0.005
-8.8712e-02,0.005
-8.8704e-02,0.005
-8.8696e-02,0.005
-8.8688e-02,0.005
-8.8680e-02,0.005
-8.8672e-02,0.025
-8.8664e-02,0.025
-8.8656e-02,0.005
-8.8648e-02,0.005
-8.8640e-02,-0.015
-8.8632e-02,0.005
-8.8624e-02,0.025
-8.8616e-02,0.005
-8.8608e-02,0.005
-8.8600e-02,0.005
-8.8592e-02,0.005
-8.8584e-02,0.025
-8.8576e-02,0.005
-8.8568e-02,0.005
-8.8560e-02,0.005
-8.8552e-02,0.005
-8.8544e-02,0.025
-8.8536e-02,0.005
-8.8528e-02,0.005
-8.8520e-02,0.025
-8.8512e-02,0.005
-8.8504e-02,0.025
-8.8496e-02,0.005
-8.8488e-02,0.005
-8.8480e-02,0.005
-8.8472e-02,0.005
-8.8464e-02,0.025
-8.8456e-02,0.005
-8.8448e-02,0.005
-8.8440e-02,0.025
-8.8432e-02,0.005
-8.8424e-02,0.025
-8.8416e-02,0.005
-8.8408e-02,0.025
-8.8400e-02,0.005
-8.8392e-02,0.025
-8.8384e-02,0.025
-8.8376e-02,0.005
-8.8368e-02,0.005
-8.8360e-02,0.005
-8.8352e-02,0.005
-8.8344e-02,0.005
-8.8336e-02,0.005
-8.8328e-02,0.005
-8.8320e-02,0.005
-8.8312e-02,0.005
-8.8304e-02,0.005
-8.8296e-02,0.005
-8.8288e-02,0.005
-8.8280e-02,0.005
-8.8272e-02,0.825
-8.8264e-02,0.845
-8.8256e-02,0.845
-8.8248e-02,0.845
-8.8240e-02,0.865
-8.8232e-02,0.865
-8.8224e-02,0.845
-8.8216e-02,0.865
-8.8208e-02,0.865
-8.8200e-02,0.845
-8.8192e-02,0.845
-8.8184e-02,0.845
-8.8176e-02,0.865
-8.8168e-02,0.865
-8.8160e-02,0.845
-8.8152e-02,0.845
-8.8144e-02,0.865
-8.8136e-02,0.885
-8.8128e-02,0.865
-8.8120e-02,0.845
-8.8112e-02,0.865
-8.8104e-02,0.865
-8.8096e-02,0.845
-8.8088e-02,0.845
-8.8080e-02,0.865
-8.8072e-02,0.865
-8.8064e-02,0.845
-8.8056e-02,0.865
-8.8048e-02,0.845
-8.8040e-02,0.845
-8.8032e-02,0.865
-8.8024e-02,0.845
-8.8016e-02,0.865
-8.8008e-02,0.845
-8.8000e-02,0.865
-8.7992e-02,0.865
-8.7984e-02,0.845
-8.7976e-02,0.845
-8.7968e-02,0.845
-8.7960e-02,0.845
-8.7952e-02,0.845
-8.7944e-02,0.865
-8.7936e-02,0.865
-8.7928e-02,0.845
-8.7920e-02,0.845
-8.7912e-02,0.845
-8.7904e-02,0.865
-8.7896e-02,0.865
-8.7888e-02,0.845
-8.7880e-02,0.865
-8.7872e-02,0.865
-8.7864e-02,0.845
-8.7856e-02,0.865
-8.7848e-02,0.845
-8.7840e-02,0.845
-8.7832e-02,0.865
-8.7824e-02,0.865
-8.7816e-02,0.845
-8.7808e-02,0.845
-8.7800e-02,0.845
-8.7792e-02,0.845
-8.7784e-02,0.845
-8.7776e-02,0.865
-8.7768e-02,0.845
-8.7760e-02,0.845
-8.7752e-02,0.865
-8.7744e-02,0.845
-8.7736e-02,0.845
-8.7728e-02,0.845
-8.7720e-02,0.845
-8.7712e-02,0.845
-8.7704e-02,0.845
-8.7696e-02,0.845
-8.7688e-02,0.845
-8.7680e-02,0.845
-8.7672e-02,0.865
-8.7664e-02,0.845
-8.7656e-02,0.845
-8.7648e-02,0.865
-8.7640e-02,0.865
-8.7632e-02,0.845
-8.7624e-02,0.845
-8.7616e-02,0.845
-8.7608e-02,0.865
-8.7600e-02,0.845
-8.7592e-02,0.845
-8.7584e-02,0.865
-8.7576e-02,0.865
-8.7568e-02,0.865
-8.7560e-02,0.865
-8.7552e-02,0.865
-8.7544e-02,0.865
-8.7536e-02,0.845
-8.7528e-02,0.845
-8.7520e-02,0.025
-8.7512e-02,0.025
-8.7504e-02,0.005
-8.7496e-02,0.025
-8.7488e-02,0.005
-8.7480e-02,0.005
-8.7472e-02,0.005
-8.7464e-02,0.005
-8.7456e-02,0.005
-8.7448e-02,0.005
-8.7440e-02,0.005
-8.7432e-02,0.025
-8.7424e-02,0.025
-8.7416e-02,0.005
-8.7408e-02,-0.015
-8.7400e-02,0.005
-8.7392e-02,0.005
-8.7384e-02,0.005
-8.7376e-02,0.005
-8.7368e-02,0.025
-8.7360e-02,0.025
-8.7352e-02,0.005
-8.7344e-02,0.005
-8.7336e-02,0.005
-8.7328e-02,0.005
-8.7320e-02,0.005
-8.7312e-02,0.005
-8.7304e-02,0.005
-8.7296e-02,0.005
-8.7288e-02,0.005
-8.7280e-02,0.025
-8.7272e-02,0.005
-8.7264e-02,0.005
-8.7256e-02,0.005
-8.7248e-02,0.005
-8.7240e-02,0.005
-8.7232e-02,0.005
-8.7224e-02,0.025
-8.7216e-02,0.005
-8.7208e-02,0.005
-8.7200e-02,0.005
-8.7192e-02,0.005
-8.7184e-02,0.025
-8.7176e-02,0.005
-8.7168e-02,0.005
-8.7160e-02,0.005
-8.7152e-02,0.025
-8.7144e-02,0.005
-8.7136e-02,0.005
-8.7128e-02,0.005
-8.7120e-02,0.005
-8.7112e-02,0.005
-8.7104e-02,0.005
-8.7096e-02,0.005
-8.7088e-02,0.005
-8.7080e-02,0.005
-8.7072e-02,0.005
-8.7064e-02,0.005
-8.7056e-02,0.005
-8.7048e-02,0.025
-8.7040e-02,0.005
-8.7032e-02,0.005
-8.7024e-02,0.025
-8.7016e-02,0.005
-8.7008e-02,0.005
-8.7000e-02,0.005
-8.6992e-02,0.005
-8.6984e-02,0.005
-8.6976e-02,0.005
-8.6968e-02,0.005
-8.6960e-02,0.005
-8.6952e-02,0.005
-8.6944e-02,0.005
-8.6936e-02,0.025
-8.6928e-02,0.005
-8.6920e-02,0.005
-8.6912e-02,0.025
-8.6904e-02,0.005
-8.6896e-02,0.005
-8.6888e-02,0.005
-8.6880e-02,0.005
-8.6872e-02,0.005
-8.6864e-02,0.025
-8.6856e-02,0.005
-8.6848e-02,0.005
-8.6840e-02,0.005
-8.6832e-02,0.005
-8.6824e-02,0.005
-8.6816e-02,0.025
-8.6808e-02,0.005
-8.6800e-02,0.025
-8.6792e-02,0.005
-8.6784e-02,0.005
-8.6776e-02,0.005
-8.6768e-02,0.005
-8.6760e-02,0.005
-8.6752e-02,0.005
-8.6744e-02,0.005
-8.6736e-02,0.005
-8.6728e-02,0.005
-8.6720e-02,0.005
-8.6712e-02,0.025
-8.6704e-02,0.005
-8.6696e-02,0.005
-8.6688e-02,0.025
-8.6680e-02,0.025
-8.6672e-02,0.005
-8.6664e-02,0.005
-8.6656e-02,0.025
-8.6648e-02,0.005
-8.6640e-02,0.005
-8.6632e-02,0.025
-8.6624e-02,0.005
-8.6616e-02,0.005
-8.6608e-02,0.005
-8.6600e-02,0.005
-8.6592e-02,0.005
-8.6584e-02,0.005
-8.6576e-02,0.005
-8.6568e-02,0.005
-8.6560e-02,0.005
-8.6552e-02,0.005
-8.6544e-02,0.005
-8.6536e-02,0.025
-8.6528e-02,0.005
-8.6520e-02,0.005
-8.6512e-02,0.005
-8.6504e-02,0.005
-8.6496e-02,0.005
-8.6488e-02,0.005
-8.6480e-02,0.005
-8.6472e-02,0.005
-8.6464e-02,0.005
-8.6456e-02,0.005
-8.6448e-02,0.005
-8.6440e-02,0.005
-8.6432e-02,0.005
-8.6424e-02,0.005
-8.6416e-02,0.005
-8.6408e-02,0.005
-8.6400e-02,0.005
-8.6392e-02,0.005
-8.6384e-02,0.005
-8.6376e-02,0.005
-8.6368e-02,0.005
-8.6360e-02,0.025
-8.6352e-02,0.005
-8.6344e-02,0.005
-8.6336e-02,0.005
-8.6328e-02,0.005
-8.6320e-02,0.005
-8.6312e-02,0.005
-8.6304e-02,0.005
-8.6296e-02,0.005
-8.6288e-02,0.025
-8.6280e-02,0.005
-8.6272e-02,0.025
-8.6264e-02,0.005
-8.6256e-02,0.005
-8.6248e-02,0.005
