613 - 2/TEK00001.CSV

Model,TBS2104X
Firmware Version,v1.31.14

Point Format,Y,,,
Horizontal Units,S,,,
Horizontal Scale,0.02,,,
Sample Interval,1.6e-05,,,
Filter Frequency,2e+08,,,
Record Length,20000,,,
Gating,0.0% to 100.0%,0.0% to 100.0%,0.0% to 100.0%,0.0% to 100.0%
Probe Attenuation,1,1,1,1
Vertical Units,V,V,V,A
Vertical Offset,0,0,0,0
Vertical Scale,1,1,1,0.05
Label,,,,
TIME,CH1,CH2,CH3,CH4
-1.6600e-01,0.79,0.32,0.39,0.0135
-1.6598e-01,0.79,0.36,0.35,0.0155
-1.6597e-01,0.79,0.36,0.39,0.0155
-1.6595e-01,0.79,0.4,0.39,0.0155
-1.6594e-01,0.79,0.4,0.39,0.0155
-1.6592e-01,0.79,0.36,0.39,0.0155
-1.6590e-01,0.79,0.36,0.39,0.0135
-1.6589e-01,0.79,0.36,0.35,0.0155
-1.6587e-01,0.79,0.36,0.39,0.0155
-1.6586e-01,0.79,0.36,0.39,0.0155
-1.6584e-01,0.79,0.36,0.35,0.0155
-1.6582e-01,0.79,0.4,0.39,0.0155
-1.6581e-01,0.83,0.36,0.39,0.0155
-1.6579e-01,0.79,0.32,0.39,0.0135
-1.6578e-01,0.79,0.36,0.39,0.0135
-1.6576e-01,0.79,0.36,0.39,0.0155
-1.6574e-01,0.79,0.4,0.39,0.0155
-1.6573e-01,0.79,0.4,0.39,0.0155
-1.6571e-01,0.79,0.36,0.39,0.0155
-1.6570e-01,0.79,0.36,0.39,0.0155
-1.6568e-01,0.79,0.32,0.39,0.0155
-1.6566e-01,0.79,0.36,0.35,0.0155
-1.6565e-01,0.83,0.36,0.35,0.0155
-1.6563e-01,0.83,0.32,0.39,0.0155
-1.6562e-01,0.79,0.32,0.39,0.0155
-1.6560e-01,0.79,0.32,0.39,0.0155
-1.6558e-01,0.79,0.32,0.39,0.0155
-1.6557e-01,0.79,0.36,0.35,0.0155
-1.6555e-01,0.79,0.36,0.39,0.0155
-1.6554e-01,0.79,0.36,0.35,0.0115
-1.6552e-01,0.79,0.36,0.39,0.0135
-1.6550e-01,0.79,0.36,0.39,0.0155
-1.6549e-01,0.79,0.36,0.39,0.0135
-1.6547e-01,0.79,0.36,0.39,0.0155
-1.6546e-01,0.79,0.36,0.35,0.0155
-1.6544e-01,0.79,0.36,0.39,0.0155
-1.6542e-01,0.83,0.32,0.39,0.0155
-1.6541e-01,0.83,0.36,0.39,0.0155
-1.6539e-01,0.79,0.32,0.35,0.0155
-1.6538e-01,0.79,0.36,0.39,0.0155
-1.6536e-01,0.83,0.32,0.35,0.0155
-1.6534e-01,0.79,0.36,0.39,0.0155
-1.6533e-01,0.79,0.32,0.39,0.0155
-1.6531e-01,0.83,0.32,0.39,0.0115
-1.6530e-01,0.79,0.36,0.23,0.0175
-1.6528e-01,0.83,0.36,0.23,0.0075
-1.6526e-01,0.79,0.36,0.23,0.0055
-1.6525e-01,0.79,0.36,0.23,0.0115
-1.6523e-01,0.79,0.36,0.23,0.0115
-1.6522e-01,0.83,0.32,0.19,0.0095
-1.6520e-01,0.79,0.36,0.23,0.0075
-1.6518e-01,0.79,0.36,0.23,0.0095
-1.6517e-01,0.79,0.32,0.19,0.0095
-1.6515e-01,0.79,0.36,0.23,0.0115
-1.6514e-01,0.79,0.36,0.23,0.0095
-1.6512e-01,0.79,0.32,0.23,0.0095
-1.6510e-01,0.79,0.36,0.23,0.0095
-1.6509e-01,0.79,0.36,0.19,0.0095
-1.6507e-01,0.79,0.36,0.23,0.0095
-1.6506e-01,0.79,0.36,0.23,0.0095
-1.6504e-01,0.79,0.36,0.23,0.0095
-1.6502e-01,0.79,0.36,0.23,0.0095
-1.6501e-01,0.83,0.36,0.23,0.0115
-1.6499e-01,0.79,0.36,0.23,0.0095
-1.6498e-01,0.79,0.36,0.23,0.0095
-1.6496e-01,0.79,0.32,0.23,0.0095
-1.6494e-01,0.79,0.36,0.23,0.0095
-1.6493e-01,0.79,0.36,0.23,0.0075
-1.6491e-01,0.79,0.36,0.23,0.0095
-1.6490e-01,0.83,0.32,0.23,0.0095
-1.6488e-01,0.79,0.32,0.23,0.0095
-1.6486e-01,0.83,0.36,0.19,0.0095
-1.6485e-01,0.79,0.36,0.23,0.0095
-1.6483e-01,0.79,0.36,0.23,0.0075
-1.6482e-01,0.79,0.36,0.19,0.0115
-1.6480e-01,0.79,0.36,0.23,0.0115
-1.6478e-01,0.79,0.36,0.23,0.0095
-1.6477e-01,0.79,0.36,0.23,0.0095
-1.6475e-01,0.79,0.36,0.23,0.0095
-1.6474e-01,0.79,0.36,0.23,0.0095
-1.6472e-01,0.79,0.36,0.23,0.0095
-1.6470e-01,0.79,0.4,0.23,0.0075
-1.6469e-01,0.79,0.36,0.23,0.0115
-1.6467e-01,0.79,0.32,0.23,0.0095
-1.6466e-01,0.79,0.4,0.19,0.0095
-1.6464e-01,0.79,0.36,0.23,0.0095
-1.6462e-01,0.79,0.36,0.23,0.0075
-1.6461e-01,0.79,0.36,0.23,0.0115
-1.6459e-01,0.79,0.36,0.19,0.0095
-1.6458e-01,0.79,0.36,0.23,0.0095
-1.6456e-01,0.79,0.36,0.23,0.0115
-1.6454e-01,0.83,0.4,0.27,0.0135
-1.6453e-01,0.79,0.36,0.39,0.0195
-1.6451e-01,0.79,0.36,0.39,0.0115
-1.6450e-01,0.79,0.36,0.39,0.0155
-1.6448e-01,0.79,0.36,0.39,0.0135
-1.6446e-01,0.79,0.36,0.39,0.0135
-1.6445e-01,0.79,0.36,0.39,0.0155
-1.6443e-01,0.83,0.36,0.39,0.0155
-1.6442e-01,0.79,0.32,0.35,0.0155
-1.6440e-01,0.79,0.36,0.39,0.0155
-1.6438e-01,0.79,0.32,0.39,0.0135
-1.6437e-01,0.83,0.36,0.39,0.0155
-1.6435e-01,0.79,0.36,0.39,0.0155
-1.6434e-01,0.79,0.36,0.39,0.0155
-1.6432e-01,0.79,0.36,0.35,0.0155
-1.6430e-01,0.79,0.36,0.39,0.0155
-1.6429e-01,0.79,0.36,0.39,0.0155
-1.6427e-01,0.83,0.36,0.39,0.0155
-1.6426e-01,0.79,0.36,0.35,0.0155
-1.6424e-01,0.79,0.36,0.39,0.0155
-1.6422e-01,0.79,0.36,0.39,0.0155
-1.6421e-01,0.79,0.36,0.39,0.0155
-1.6419e-01,0.83,0.36,0.35,0.0155
-1.6418e-01,0.79,0.36,0.39,0.0155
-1.6416e-01,0.79,0.32,0.35,0.0155
-1.6414e-01,0.79,0.36,0.39,0.0175
-1.6413e-01,0.79,0.36,0.35,0.0135
-1.6411e-01,0.79,0.36,0.35,0.0155
-1.6410e-01,0.83,0.4,0.35,0.0155
-1.6408e-01,0.83,0.36,0.35,0.0155
-1.6406e-01,0.79,0.32,0.35,0.0135
-1.6405e-01,0.79,0.36,0.35,0.0155
-1.6403e-01,0.79,0.36,0.51,0.0175
-1.6402e-01,0.79,0.36,0.51,0.0235
-1.6400e-01,0.83,0.36,0.47,0.0155
-1.6398e-01,0.79,0.36,0.39,0.0215
-1.6397e-01,0.79,0.36,0.35,0.0155
-1.6395e-01,0.79,0.36,0.35,0.0135
-1.6394e-01,0.79,0.36,0.35,0.0115
-1.6392e-01,0.79,0.36,0.35,0.0135
-1.6390e-01,0.79,0.36,0.39,0.0155
-1.6389e-01,0.79,0.36,0.39,0.0155
-1.6387e-01,0.83,0.4,0.35,0.0155
-1.6386e-01,0.79,0.36,0.39,0.0155
-1.6384e-01,0.79,0.4,0.35,0.0155
-1.6382e-01,0.79,0.36,0.35,0.0155
-1.6381e-01,0.83,0.36,0.35,0.0155
-1.6379e-01,0.79,0.36,0.39,0.0155
-1.6378e-01,0.79,0.36,0.35,0.0135
-1.6376e-01,0.79,0.4,0.39,0.0155
-1.6374e-01,0.79,0.36,0.39,0.0155
-1.6373e-01,0.79,0.4,0.35,0.0155
-1.6371e-01,0.79,0.36,0.35,0.0155
-1.6370e-01,0.79,0.36,0.35,0.0155
-1.6368e-01,0.79,0.36,0.35,0.0155
-1.6366e-01,0.79,0.36,0.39,0.0155
-1.6365e-01,0.79,0.36,0.35,0.0175
-1.6363e-01,0.79,0.36,0.35,0.0155
-1.6362e-01,0.83,0.36,0.35,0.0155
-1.6360e-01,0.83,0.36,0.35,0.0155
-1.6358e-01,0.79,0.36,0.39,0.0155
-1.6357e-01,0.79,0.36,0.35,0.0135
-1.6355e-01,0.83,0.36,0.35,0.0155
-1.6354e-01,0.83,0.36,0.39,0.0155
-1.6352e-01,0.79,0.36,0.39,0.0155
-1.6350e-01,0.79,0.4,0.39,0.0155
-1.6349e-01,0.79,0.4,0.23,0.0035
-1.6347e-01,0.79,0.36,0.23,0.0135
-1.6346e-01,0.79,0.36,0.19,0.0095
-1.6344e-01,0.79,0.36,0.23,0.0075
-1.6342e-01,0.83,0.4,0.23,0.0095
-1.6341e-01,0.79,0.36,0.23,0.0095
-1.6339e-01,0.79,0.36,0.23,0.0115
-1.6338e-01,0.83,0.36,0.23,0.0115
-1.6336e-01,0.79,0.36,0.23,0.0095
-1.6334e-01,0.79,0.36,0.23,0.0095
-1.6333e-01,0.79,0.36,0.23,0.0095
-1.6331e-01,0.83,0.4,0.23,0.0095
-1.6330e-01,0.83,0.36,0.23,0.0075
-1.6328e-01,0.79,0.32,0.23,0.0115
-1.6326e-01,0.79,0.32,0.23,0.0095
-1.6325e-01,0.79,0.36,0.23,0.0115
-1.6323e-01,0.79,0.36,0.19,0.0115
-1.6322e-01,0.79,0.36,0.23,0.0115
-1.6320e-01,0.79,0.36,0.19,0.0115
-1.6318e-01,0.79,0.36,0.23,0.0115
-1.6317e-01,0.83,0.36,0.23,0.0095
-1.6315e-01,0.79,0.36,0.23,0.0095
-1.6314e-01,0.83,0.32,0.19,0.0095
-1.6312e-01,0.79,0.36,0.23,0.0095
-1.6310e-01,0.83,0.36,0.23,0.0095
-1.6309e-01,0.79,0.36,0.19,0.0095
-1.6307e-01,0.83,0.32,0.23,0.0095
-1.6306e-01,0.83,0.36,0.23,0.0095
-1.6304e-01,0.79,0.32,0.23,0.0115
-1.6302e-01,0.79,0.4,0.23,0.0115
-1.6301e-01,0.79,0.36,0.23,0.0095
-1.6299e-01,0.79,0.36,0.23,0.0095
-1.6298e-01,0.79,0.4,0.19,0.0075
-1.6296e-01,0.79,0.36,0.27,0.0095
-1.6294e-01,0.79,0.36,0.23,0.0115
-1.6293e-01,0.79,0.36,0.23,0.0115
-1.6291e-01,0.83,0.36,0.19,0.0095
-1.6290e-01,0.83,0.36,0.23,0.0095
-1.6288e-01,0.79,0.36,0.23,0.0095
-1.6286e-01,0.83,0.36,0.23,0.0095
-1.6285e-01,0.83,0.36,0.23,0.0095
-1.6283e-01,0.79,0.36,0.19,0.0115
-1.6282e-01,0.83,0.36,0.23,0.0095
-1.6280e-01,0.79,0.32,0.23,0.0095
-1.6278e-01,0.79,0.36,0.39,0.0215
-1.6277e-01,0.79,0.36,0.35,0.0095
-1.6275e-01,0.79,0.36,0.39,0.0135
-1.6274e-01,0.79,0.36,0.35,0.0155
-1.6272e-01,0.83,0.36,0.35,0.0135
-1.6270e-01,0.83,0.36,0.35,0.0175
-1.6269e-01,0.83,0.36,0.35,0.0155
-1.6267e-01,0.79,0.36,0.35,0.0155
-1.6266e-01,0.79,0.36,0.35,0.0155
-1.6264e-01,0.79,0.36,0.35,0.0115
-1.6262e-01,0.79,0.32,0.39,0.0155
-1.6261e-01,0.83,0.36,0.35,0.0155
-1.6259e-01,0.79,0.36,0.35,0.0155
-1.6258e-01,0.79,0.36,0.39,0.0155
-1.6256e-01,0.79,0.36,0.39,0.0175
-1.6254e-01,0.79,0.4,0.39,0.0135
-1.6253e-01,0.79,0.36,0.35,0.0135
-1.6251e-01,0.79,0.36,0.35,0.0155
-1.6250e-01,0.79,0.36,0.39,0.0135
-1.6248e-01,0.79,0.36,0.35,0.0155
-1.6246e-01,0.79,0.36,0.35,0.0135
-1.6245e-01,0.83,0.36,0.35,0.0135
-1.6243e-01,0.79,0.36,0.35,0.0155
-1.6242e-01,0.79,0.36,0.39,0.0155
-1.6240e-01,0.79,0.36,0.39,0.0155
-1.6238e-01,0.83,0.32,0.39,0.0155
-1.6237e-01,0.79,0.36,0.35,0.0155
-1.6235e-01,0.79,0.36,0.35,0.0135
-1.6234e-01,0.79,0.36,0.39,0.0155
-1.6232e-01,0.79,0.36,0.35,0.0155
-1.6230e-01,0.79,0.36,0.39,0.0155
-1.6229e-01,0.79,0.36,0.39,0.0155
-1.6227e-01,0.79,0.36,0.35,0.0155
-1.6226e-01,0.79,0.36,0.39,0.0155
-1.6224e-01,0.79,0.36,0.35,0.0135
-1.6222e-01,0.79,0.36,0.35,0.0155
-1.6221e-01,0.79,0.36,0.35,0.0155
-1.6219e-01,0.79,0.36,0.35,0.0155
-1.6218e-01,0.83,0.36,0.35,0.0155
-1.6216e-01,0.79,0.32,0.39,0.0155
-1.6214e-01,0.79,0.4,0.39,0.0155
-1.6213e-01,0.79,0.36,0.39,0.0155
-1.6211e-01,0.79,0.36,0.39,0.0155
-1.6210e-01,0.83,0.32,0.39,0.0155
-1.6208e-01,0.83,0.36,0.35,0.0155
-1.6206e-01,0.83,0.36,0.39,0.0155
-1.6205e-01,0.79,0.36,0.39,0.0155
-1.6203e-01,0.79,0.36,0.39,0.0155
-1.6202e-01,0.79,0.36,0.35,0.0155
-1.6200e-01,0.79,0.36,0.39,0.0155
-1.6198e-01,0.79,0.36,0.35,0.0155
-1.6197e-01,0.83,0.36,0.35,0.0155
-1.6195e-01,0.79,0.36,0.39,0.0155
-1.6194e-01,0.39,0.36,0.07,0.0015
-1.6192e-01,0.35,0.36,0.07,0.0035
-1.6190e-01,0.35,0.36,0.11,0.0055
-1.6189e-01,0.35,0.36,0.07,0.0035
-1.6187e-01,0.39,0.4,0.11,0.0055
-1.6186e-01,0.39,0.36,0.07,0.0055
-1.6184e-01,0.39,0.36,0.11,0.0055
-1.6182e-01,0.35,0.36,0.07,0.0055
-1.6181e-01,0.39,0.36,0.07,0.0055
-1.6179e-01,0.39,0.36,0.11,0.0035
-1.6178e-01,0.39,0.32,0.11,0.0055
-1.6176e-01,0.39,0.36,0.11,0.0055
-1.6174e-01,0.39,0.36,0.11,0.0035
-1.6173e-01,0.39,0.36,0.07,0.0055
-1.6171e-01,0.39,0.36,0.07,0.0035
-1.6170e-01,0.39,0.32,0.11,0.0055
-1.6168e-01,0.39,0.36,0.11,0.0035
-1.6166e-01,0.39,0.36,0.07,0.0055
-1.6165e-01,0.39,0.36,0.07,0.0055
-1.6163e-01,0.39,0.32,0.11,0.0075
-1.6162e-01,0.39,0.32,0.11,0.0055
-1.6160e-01,0.39,0.32,0.11,0.0055
-1.6158e-01,0.39,0.36,0.11,0.0055
-1.6157e-01,0.39,0.36,0.07,0.0035
-1.6155e-01,0.39,0.36,0.07,0.0055
-1.6154e-01,0.39,0.32,0.11,0.0055
-1.6152e-01,0.39,0.32,0.11,0.0055
-1.6150e-01,0.39,0.36,0.11,0.0055
-1.6149e-01,0.39,0.36,0.11,0.0055
-1.6147e-01,0.35,0.4,0.07,0.0055
-1.6146e-01,0.39,0.36,0.11,0.0055
-1.6144e-01,0.39,0.32,0.11,0.0055
-1.6142e-01,0.39,0.36,0.07,0.0055
-1.6141e-01,0.39,0.4,0.07,0.0055
-1.6139e-01,0.39,0.36,0.11,0.0055
-1.6138e-01,0.39,0.32,0.07,0.0055
-1.6136e-01,0.39,0.36,0.11,0.0055
-1.6134e-01,0.35,0.4,0.11,0.0055
-1.6133e-01,0.39,0.36,0.07,0.0055
-1.6131e-01,0.39,0.36,0.07,0.0055
-1.6130e-01,0.39,0.36,0.11,0.0035
-1.6128e-01,0.39,0.36,0.07,0.0055
-1.6126e-01,0.39,0.36,0.11,0.0055
-1.6125e-01,0.39,0.36,0.11,0.0055
-1.6123e-01,0.39,0.4,0.11,0.0055
-1.6122e-01,0.39,0.36,0.11,0.0055
-1.6120e-01,0.39,0.36,0.11,0.0055
-1.6118e-01,0.83,0.36,0.39,0.0135
-1.6117e-01,0.83,0.36,0.39,0.0115
-1.6115e-01,0.79,0.36,0.39,0.0155
-1.6114e-01,0.79,0.36,0.35,0.0175
-1.6112e-01,0.79,0.36,0.39,0.0155
-1.6110e-01,0.79,0.32,0.39,0.0155
-1.6109e-01,0.79,0.36,0.39,0.0155
-1.6107e-01,0.79,0.36,0.39,0.0155
-1.6106e-01,0.79,0.4,0.39,0.0155
-1.6104e-01,0.79,0.36,0.39,0.0155
-1.6102e-01,0.79,0.36,0.39,0.0155
-1.6101e-01,0.79,0.36,0.39,0.0155
-1.6099e-01,0.79,0.36,0.35,0.0155
-1.6098e-01,0.79,0.36,0.39,0.0155
-1.6096e-01,0.83,0.36,0.35,0.0135
-1.6094e-01,0.79,0.32,0.39,0.0155
-1.6093e-01,0.83,0.36,0.39,0.0155
-1.6091e-01,0.83,0.36,0.39,0.0155
-1.6090e-01,0.79,0.32,0.39,0.0155
-1.6088e-01,0.79,0.36,0.39,0.0155
-1.6086e-01,0.83,0.36,0.39,0.0155
-1.6085e-01,0.79,0.36,0.39,0.0155
-1.6083e-01,0.79,0.36,0.35,0.0155
-1.6082e-01,0.79,0.36,0.39,0.0155
-1.6080e-01,0.79,0.36,0.39,0.0155
-1.6078e-01,0.79,0.36,0.35,0.0155
-1.6077e-01,0.79,0.36,0.39,0.0155
-1.6075e-01,0.83,0.32,0.35,0.0155
-1.6074e-01,0.83,0.36,0.19,0.0015
-1.6072e-01,0.79,0.4,0.23,0.0155
-1.6070e-01,0.79,0.36,0.23,0.0115
-1.6069e-01,0.83,0.36,0.23,0.0095
-1.6067e-01,0.83,0.36,0.23,0.0095
-1.6066e-01,0.79,0.36,0.23,0.0095
-1.6064e-01,0.39,0.36,-0.05,0.0095
-1.6062e-01,0.39,0.36,-0.05,0.0035
-1.6061e-01,0.39,0.36,-0.05,-0.000499995
-1.6059e-01,0.39,0.32,-0.05,-0.000499995
-1.6058e-01,0.39,0.32,-0.05,-0.000499995
-1.6056e-01,0.39,0.36,-0.01,-0.000499995
-1.6054e-01,0.39,0.36,-0.05,0.0015
-1.6053e-01,0.39,0.32,-0.05,0.0015
-1.6051e-01,0.39,0.36,-0.05,0.0015
-1.6050e-01,0.39,0.36,-0.05,-0.000499995
-1.6048e-01,0.39,0.36,-0.05,-0.000499995
-1.6046e-01,0.39,0.32,-0.05,-0.000499995
-1.6045e-01,0.39,0.36,-0.05,0.0015
-1.6043e-01,0.39,0.36,-0.05,-0.000499995
-1.6042e-01,0.39,0.4,-0.05,-0.000499995
-1.6040e-01,0.39,0.36,-0.01,-0.0025
-1.6038e-01,0.39,0.36,-0.01,-0.000499995
-1.6037e-01,0.39,0.36,-0.01,-0.000499995
-1.6035e-01,0.39,0.36,-0.05,-0.000499995
-1.6034e-01,0.43,0.32,-0.01,-0.000499995
-1.6032e-01,0.39,0.36,-0.05,-0.0025
-1.6030e-01,0.39,0.36,-0.01,0.0015
-1.6029e-01,0.39,0.36,-0.05,-0.000499995
-1.6027e-01,0.39,0.36,-0.05,-0.000499995
-1.6026e-01,0.39,0.36,-0.05,-0.000499995
-1.6024e-01,0.39,0.36,-0.05,-0.000499995
-1.6022e-01,0.39,0.4,-0.05,-0.000499995
-1.6021e-01,0.39,0.36,-0.05,-0.000499995
-1.6019e-01,0.39,0.36,0.07,0.0075
-1.6018e-01,0.39,0.36,0.11,-0.000499995
-1.6016e-01,0.39,0.36,0.11,0.0075
-1.6014e-01,0.35,0.36,0.11,0.0035
-1.6013e-01,0.39,0.36,0.11,0.0055
-1.6011e-01,0.39,0.36,0.07,0.0055
-1.6010e-01,0.39,0.4,0.07,0.0035
-1.6008e-01,0.39,0.36,0.11,0.0055
-1.6006e-01,0.43,0.32,0.11,0.0035
-1.6005e-01,0.35,0.36,0.07,0.0035
-1.6003e-01,0.39,0.36,0.07,0.0055
-1.6002e-01,0.39,0.36,0.11,0.0055
-1.6000e-01,0.39,0.36,0.07,0.0055
-1.5998e-01,0.39,0.36,0.11,0.0055
-1.5997e-01,0.39,0.36,0.11,0.0055
-1.5995e-01,0.39,0.36,0.11,0.0055
-1.5994e-01,0.39,0.36,0.11,0.0055
-1.5992e-01,0.39,0.4,0.07,0.0055
-1.5990e-01,0.39,0.36,0.11,0.0055
-1.5989e-01,0.39,0.36,0.11,0.0055
-1.5987e-01,0.39,0.36,0.07,0.0035
-1.5986e-01,0.39,0.36,0.11,0.0055
-1.5984e-01,0.39,0.36,0.07,0.0055
-1.5982e-01,0.39,0.36,0.07,0.0055
-1.5981e-01,0.39,0.32,0.11,0.0035
-1.5979e-01,0.35,0.36,0.07,0.0055
-1.5978e-01,0.39,0.36,0.11,0.0055
-1.5976e-01,0.35,0.36,0.11,0.0055
-1.5974e-01,0.39,0.36,0.07,0.0055
-1.5973e-01,0.39,0.36,0.11,0.0055
-1.5971e-01,0.43,0.36,0.11,0.0055
-1.5970e-01,0.39,0.36,0.07,0.0055
-1.5968e-01,0.39,0.36,0.07,0.0035
-1.5966e-01,0.35,0.36,0.07,0.0055
-1.5965e-01,0.43,0.36,0.11,0.0055
-1.5963e-01,0.35,0.36,0.07,0.0035
-1.5962e-01,0.39,0.36,0.11,0.0035
-1.5960e-01,0.39,0.36,0.07,0.0055
-1.5958e-01,0.39,0.36,0.11,0.0055
-1.5957e-01,0.39,0.36,0.11,0.0055
-1.5955e-01,0.39,0.4,0.11,0.0035
-1.5954e-01,0.39,0.36,0.11,0.0055
-1.5952e-01,0.39,0.36,0.11,0.0055
-1.5950e-01,0.39,0.36,0.11,0.0055
-1.5949e-01,0.39,0.36,0.07,0.0035
-1.5947e-01,0.39,0.36,0.11,0.0055
-1.5946e-01,0.39,0.36,0.11,0.0035
-1.5944e-01,0.35,0.36,-0.05,0.0055
-1.5942e-01,0.39,0.36,-0.05,-0.0065
-1.5941e-01,0.39,0.36,-0.05,-0.0025
-1.5939e-01,0.39,0.36,-0.05,0.0015
-1.5938e-01,0.39,0.36,-0.05,0.0015
-1.5936e-01,0.39,0.36,-0.05,-0.000499995
-1.5934e-01,0.39,0.36,-0.05,-0.000499995
-1.5933e-01,0.39,0.36,-0.05,-0.000499995
-1.5931e-01,0.39,0.4,-0.01,-0.000499995
-1.5930e-01,0.39,0.36,-0.05,-0.000499995
-1.5928e-01,0.39,0.36,-0.05,-0.000499995
-1.5926e-01,0.39,0.4,-0.05,-0.000499995
-1.5925e-01,0.39,0.36,-0.01,-0.000499995
-1.5923e-01,0.39,0.36,-0.05,-0.000499995
-1.5922e-01,0.39,0.36,-0.09,-0.000499995
-1.5920e-01,0.39,0.36,-0.05,-0.000499995
-1.5918e-01,0.39,0.36,-0.05,-0.000499995
-1.5917e-01,0.39,0.36,-0.05,-0.000499995
-1.5915e-01,0.35,0.36,-0.01,-0.000499995
-1.5914e-01,0.39,0.36,-0.01,-0.000499995
-1.5912e-01,0.39,0.36,-0.05,-0.000499995
-1.5910e-01,0.39,0.36,-0.09,-0.000499995
-1.5909e-01,0.39,0.4,-0.05,-0.000499995
-1.5907e-01,0.39,0.36,-0.05,-0.000499995
-1.5906e-01,0.35,0.36,-0.05,-0.000499995
-1.5904e-01,0.39,0.36,-0.01,-0.000499995
-1.5902e-01,0.39,0.36,-0.01,-0.000499995
-1.5901e-01,0.39,0.36,-0.05,-0.000499995
-1.5899e-01,0.39,0.36,-0.05,-0.000499995
-1.5898e-01,0.35,0.36,-0.05,-0.000499995
-1.5896e-01,0.39,0.36,-0.05,-0.000499995
-1.5894e-01,0.39,0.36,-0.05,-0.000499995
-1.5893e-01,0.43,0.32,-0.05,-0.000499995
-1.5891e-01,0.39,0.4,-0.05,-0.000499995
-1.5890e-01,0.39,0.36,-0.05,-0.000499995
-1.5888e-01,0.39,0.36,-0.05,-0.000499995
-1.5886e-01,0.39,0.36,-0.05,-0.000499995
-1.5885e-01,0.39,0.32,-0.05,-0.000499995
-1.5883e-01,0.35,0.36,-0.05,0.0015
-1.5882e-01,0.39,0.36,-0.05,-0.000499995
-1.5880e-01,0.39,0.32,-0.01,-0.0025
-1.5878e-01,0.35,0.36,-0.05,-0.000499995
-1.5877e-01,0.39,0.32,-0.05,-0.000499995
-1.5875e-01,0.39,0.36,-0.05,-0.000499995
-1.5874e-01,0.39,0.36,-0.05,-0.0025
-1.5872e-01,0.39,0.36,-0.05,-0.0025
-1.5870e-01,0.39,0.36,-0.09,-0.0025
-1.5869e-01,0.39,0.36,-0.05,-0.000499995
-1.5867e-01,0.39,0.32,-0.05,-0.000499995
-1.5866e-01,0.39,0.36,-0.05,-0.0025
-1.5864e-01,0.39,0.36,-0.05,-0.000499995
-1.5862e-01,0.39,0.36,-0.05,-0.000499995
-1.5861e-01,0.39,0.36,-0.05,-0.000499995
-1.5859e-01,0.39,0.36,-0.17,-0.000499995
-1.5858e-01,0.39,0.4,-0.21,-0.0125
-1.5856e-01,0.39,0.36,-0.21,-0.0025
-1.5854e-01,0.39,0.32,-0.17,-0.0045
-1.5853e-01,0.39,0.36,-0.17,-0.0065
-1.5851e-01,0.39,0.36,-0.21,-0.0045
-1.5850e-01,0.39,0.36,-0.21,-0.0045
-1.5848e-01,0.39,0.36,-0.17,-0.0065
-1.5846e-01,0.43,0.36,-0.17,-0.0045
-1.5845e-01,0.39,0.4,-0.17,-0.0065
-1.5843e-01,0.39,0.4,-0.17,-0.0045
-1.5842e-01,0.39,0.36,-0.17,-0.0045
-1.5840e-01,0.39,0.36,-0.17,-0.0045
-1.5838e-01,0.39,0.36,-0.17,-0.0065
-1.5837e-01,0.39,0.36,-0.17,-0.0045
-1.5835e-01,0.39,0.36,-0.17,-0.0045
-1.5834e-01,0.39,0.36,-0.17,-0.0045
-1.5832e-01,0.39,0.36,-0.21,-0.0045
-1.5830e-01,0.39,0.36,-0.17,-0.0065
-1.5829e-01,0.39,0.36,-0.21,-0.0065
-1.5827e-01,0.39,0.36,-0.17,-0.0065
-1.5826e-01,0.39,0.32,-0.17,-0.0045
-1.5824e-01,0.39,0.36,-0.17,-0.0045
-1.5822e-01,0.39,0.36,-0.17,-0.0065
-1.5821e-01,0.39,0.36,-0.17,-0.0065
-1.5819e-01,0.39,0.36,-0.17,-0.0045
-1.5818e-01,0.39,0.36,-0.17,-0.0065
-1.5816e-01,0.43,0.36,-0.17,-0.0065
-1.5814e-01,0.39,0.32,-0.17,-0.0045
-1.5813e-01,0.43,0.36,-0.21,-0.0045
-1.5811e-01,0.39,0.32,-0.17,-0.0045
-1.5810e-01,0.39,0.36,-0.17,-0.0045
-1.5808e-01,0.39,0.36,-0.17,-0.0045
-1.5806e-01,0.39,0.36,-0.21,-0.0065
-1.5805e-01,0.39,0.36,-0.17,-0.0045
-1.5803e-01,0.39,0.36,-0.21,-0.0045
-1.5802e-01,0.39,0.36,-0.17,-0.0045
-1.5800e-01,0.39,0.36,-0.17,-0.0045
-1.5798e-01,0.39,0.32,-0.17,-0.0045
-1.5797e-01,0.39,0.32,-0.17,-0.0045
-1.5795e-01,0.39,0.4,-0.17,-0.0045
-1.5794e-01,0.39,0.36,-0.21,-0.0045
-1.5792e-01,0.39,0.36,-0.21,-0.0045
-1.5790e-01,0.39,0.32,-0.21,-0.0045
-1.5789e-01,0.39,0.32,-0.05,-0.0025
-1.5787e-01,0.39,0.36,-0.05,0.0075
-1.5786e-01,0.43,0.4,-0.05,-0.000499995
-1.5784e-01,0.39,0.36,-0.01,-0.000499995
-1.5782e-01,0.43,0.36,-0.05,-0.000499995
-1.5781e-01,0.39,0.36,-0.05,-0.000499995
-1.5779e-01,0.39,0.36,-0.09,-0.000499995
-1.5778e-01,0.39,0.36,-0.05,-0.000499995
-1.5776e-01,0.39,0.36,-0.05,-0.000499995
-1.5774e-01,0.39,0.36,-0.05,-0.000499995
-1.5773e-01,0.39,0.36,-0.05,-0.000499995
-1.5771e-01,0.35,0.36,-0.05,-0.000499995
-1.5770e-01,0.39,0.36,-0.01,-0.000499995
-1.5768e-01,0.39,0.32,-0.05,-0.000499995
-1.5766e-01,0.39,0.36,-0.05,-0.000499995
-1.5765e-01,0.39,0.36,-0.05,-0.000499995
-1.5763e-01,0.39,0.36,-0.05,-0.000499995
-1.5762e-01,0.39,0.36,-0.09,-0.000499995
-1.5760e-01,0.43,0.36,-0.05,-0.000499995
-1.5758e-01,0.39,0.36,-0.05,-0.000499995
-1.5757e-01,0.43,0.32,-0.09,-0.000499995
-1.5755e-01,0.39,0.36,-0.05,-0.000499995
-1.5754e-01,0.39,0.4,-0.05,-0.000499995
-1.5752e-01,0.39,0.36,-0.05,-0.000499995
-1.5750e-01,0.43,0.36,-0.01,-0.000499995
-1.5749e-01,0.43,0.36,-0.05,-0.000499995
-1.5747e-01,0.39,0.4,-0.05,-0.000499995
-1.5746e-01,0.39,0.36,-0.05,-0.000499995
-1.5744e-01,0.39,0.32,-0.01,-0.000499995
-1.5742e-01,0.39,0.36,-0.05,-0.000499995
-1.5741e-01,0.39,0.36,-0.05,-0.0025
-1.5739e-01,0.03,0.36,-0.37,0.0015
-1.5738e-01,-0.00999995,0.36,-0.33,-0.0045
-1.5736e-01,-0.00999995,0.36,-0.33,-0.0105
-1.5734e-01,-0.00999995,0.36,-0.33,-0.0085
-1.5733e-01,-0.00999995,0.36,-0.33,-0.0085
-1.5731e-01,-0.05,0.4,-0.29,-0.0105
-1.5730e-01,-0.00999995,0.36,-0.49,-0.0105
-1.5728e-01,-0.00999995,0.36,-0.45,-0.0085
-1.5726e-01,-0.05,0.36,-0.45,-0.0145
-1.5725e-01,-0.00999995,0.36,-0.49,-0.0185
-1.5723e-01,-0.05,0.36,-0.49,-0.0145
-1.5722e-01,-0.00999995,0.36,-0.45,-0.0145
-1.5720e-01,-0.00999995,0.36,-0.45,-0.0145
-1.5718e-01,-0.00999995,0.36,-0.45,-0.0145
