试验5.13_SHPWM试验/TEK00002.CSV

Model,TBS2104X
Firmware Version,v1.31.14

Point Format,Y,,,
Horizontal Units,S,,,
Horizontal Scale,0.02,,,
Sample Interval,1.6e-05,,,
Filter Frequency,2e+08,,,
Record Length,20000,,,
Gating,0.0% to 100.0%,0.0% to 100.0%,0.0% to 100.0%,0.0% to 100.0%
Probe Attenuation,1,1,1,1
Vertical Units,V,V,V,A
Vertical Offset,0,0,0,0
Vertical Scale,1,1,1,1
Label,,,,
TIME,CH1,CH2,CH3,CH4
-1.7499e-01,-0.00999995,-0.44,-0.17,0.05
-1.7498e-01,-0.00999995,-0.44,-0.17,0.05
-1.7496e-01,-0.00999995,-0.4,-0.21,0.00999995
-1.7494e-01,-0.00999995,-0.4,-0.17,0.05
-1.7493e-01,-0.00999995,-0.4,-0.17,0.05
-1.7491e-01,-0.05,-0.4,-0.17,0.05
-1.7490e-01,-0.00999995,-0.48,-0.17,0.05
-1.7488e-01,-0.05,-0.44,-0.17,0.05
-1.7486e-01,-0.00999995,-0.44,-0.17,0.05
-1.7485e-01,-0.00999995,-0.4,-0.17,0.05
-1.7483e-01,-0.00999995,-0.44,-0.17,0.05
-1.7482e-01,-0.00999995,-0.4,-0.21,0.05
-1.7480e-01,-0.00999995,-0.4,-0.21,0.05
-1.7478e-01,-0.00999995,-0.4,-0.17,0.05
-1.7477e-01,-0.00999995,-0.44,-0.17,0.05
-1.7475e-01,-0.00999995,-0.44,-0.17,0.05
-1.7474e-01,-0.00999995,-0.44,-0.21,0.05
-1.7472e-01,-0.00999995,-0.44,-0.17,0.05
-1.7470e-01,-0.00999995,-0.44,-0.17,0.05
-1.7469e-01,-0.00999995,-0.44,-0.17,0.05
-1.7467e-01,-0.00999995,-0.44,-0.17,0.05
-1.7466e-01,-0.05,-0.44,-0.17,0.00999995
-1.7464e-01,-0.00999995,-0.44,-0.17,0.05
-1.7462e-01,-0.00999995,-0.44,-0.17,0.00999995
-1.7461e-01,-0.05,-0.4,-0.17,0.05
-1.7459e-01,-0.05,-0.44,-0.17,0.00999995
-1.7458e-01,-0.00999995,-0.44,-0.17,0.05
-1.7456e-01,-0.00999995,-0.44,-0.17,0.00999995
-1.7454e-01,-0.05,-0.4,-0.21,0.00999995
-1.7453e-01,-0.00999995,-0.44,-0.21,0.00999995
-1.7451e-01,-0.05,-0.44,-0.05,-0.15
-1.7450e-01,-0.00999995,-0.44,-0.05,-0.11
-1.7448e-01,-0.05,-0.44,-0.09,-0.07
-1.7446e-01,-0.00999995,-0.44,-0.05,-0.07
-1.7445e-01,-0.00999995,-0.44,-0.05,-0.07
-1.7443e-01,-0.00999995,-0.44,-0.05,-0.07
-1.7442e-01,-0.05,-0.44,-0.05,-0.03
-1.7440e-01,-0.05,-0.44,-0.05,-0.07
-1.7438e-01,-0.05,-0.44,-0.05,-0.07
-1.7437e-01,-0.00999995,-0.44,-0.05,-0.07
-1.7435e-01,-0.05,-0.44,-0.09,-0.07
-1.7434e-01,-0.05,-0.44,-0.05,-0.07
-1.7432e-01,-0.00999995,-0.44,-0.05,-0.07
-1.7430e-01,-0.05,-0.44,-0.05,-0.07
-1.7429e-01,-0.00999995,-0.4,-0.05,-0.07
-1.7427e-01,-0.05,-0.44,-0.05,-0.07
-1.7426e-01,-0.05,-0.44,-0.05,-0.07
-1.7424e-01,-0.00999995,-0.4,-0.05,-0.07
-1.7422e-01,-0.00999995,-0.44,-0.05,-0.07
-1.7421e-01,-0.00999995,-0.44,-0.05,-0.07
-1.7419e-01,-0.05,-0.44,-0.05,-0.07
-1.7418e-01,-0.00999995,-0.44,-0.05,-0.07
-1.7416e-01,-0.05,-0.44,-0.05,-0.07
-1.7414e-01,-0.00999995,-0.44,-0.05,-0.07
-1.7413e-01,-0.00999995,-0.44,-0.05,-0.07
-1.7411e-01,-0.00999995,-0.44,-0.05,-0.07
-1.7410e-01,-0.00999995,-0.44,-0.01,-0.07
-1.7408e-01,-0.05,-0.44,-0.05,-0.07
-1.7406e-01,-0.00999995,-0.4,-0.05,-0.07
-1.7405e-01,-0.00999995,-0.44,-0.05,-0.11
-1.7403e-01,-0.00999995,-0.44,-0.05,-0.07
-1.7402e-01,-0.41,-0.8,-0.29,-0.03
-1.7400e-01,-0.41,-0.8,-0.29,0.00999995
-1.7398e-01,-0.41,-0.8,-0.33,0.00999995
-1.7397e-01,-0.41,-0.84,-0.33,-0.03
-1.7395e-01,-0.45,-0.8,-0.33,-0.03
-1.7394e-01,-0.41,-0.8,-0.33,-0.03
-1.7392e-01,-0.41,-0.84,-0.41,-0.03
-1.7390e-01,-0.41,-0.8,-0.45,0.05
-1.7389e-01,-0.41,-0.84,-0.45,0.13
-1.7387e-01,-0.41,-0.8,-0.45,0.09
-1.7386e-01,-0.41,-0.84,-0.45,0.09
-1.7384e-01,-0.45,-0.8,-0.45,0.09
-1.7382e-01,-0.41,-0.8,-0.45,0.09
-1.7381e-01,-0.41,-0.8,-0.45,0.05
-1.7379e-01,-0.41,-0.88,-0.45,0.05
-1.7378e-01,-0.41,-0.84,-0.45,0.09
-1.7376e-01,-0.41,-0.8,-0.45,0.09
-1.7374e-01,-0.41,-0.8,-0.45,0.09
-1.7373e-01,-0.41,-0.8,-0.45,0.09
-1.7371e-01,-0.41,-0.8,-0.45,0.09
-1.7370e-01,-0.41,-0.8,-0.45,0.09
-1.7368e-01,-0.41,-0.8,-0.45,0.09
-1.7366e-01,-0.41,-0.84,-0.45,0.09
-1.7365e-01,-0.41,-0.8,-0.45,0.09
-1.7363e-01,-0.41,-0.8,-0.45,0.09
-1.7362e-01,-0.41,-0.84,-0.45,0.05
-1.7360e-01,-0.41,-0.8,-0.45,0.09
-1.7358e-01,-0.41,-0.8,-0.45,0.09
-1.7357e-01,-0.41,-0.8,-0.45,0.09
-1.7355e-01,-0.41,-0.84,-0.45,0.09
-1.7354e-01,-0.41,-0.8,-0.45,0.09
-1.7352e-01,-0.45,-0.84,-0.41,0.09
-1.7350e-01,-0.41,-0.8,-0.45,0.05
-1.7349e-01,-0.41,-0.8,-0.45,0.05
-1.7347e-01,-0.05,-0.44,-0.17,0.09
-1.7346e-01,0.03,-0.4,-0.17,0.05
-1.7344e-01,-0.00999995,-0.44,-0.17,0.05
-1.7342e-01,-0.00999995,-0.4,-0.17,0.05
-1.7341e-01,-0.00999995,-0.4,-0.17,0.05
-1.7339e-01,-0.00999995,-0.4,-0.17,0.05
-1.7338e-01,-0.00999995,-0.4,-0.17,0.05
-1.7336e-01,-0.00999995,-0.4,-0.17,0.00999995
-1.7334e-01,-0.00999995,-0.4,-0.17,0.05
-1.7333e-01,-0.00999995,-0.44,-0.17,0.05
-1.7331e-01,-0.00999995,-0.44,-0.17,0.05
-1.7330e-01,0.03,-0.4,-0.21,0.05
-1.7328e-01,-0.00999995,-0.4,-0.17,0.05
-1.7326e-01,-0.00999995,-0.48,-0.17,0.05
-1.7325e-01,-0.00999995,-0.4,-0.21,0.05
-1.7323e-01,-0.05,-0.4,-0.21,0.05
-1.7322e-01,-0.00999995,-0.4,-0.17,0.05
-1.7320e-01,-0.00999995,-0.44,-0.17,0.05
-1.7318e-01,-0.00999995,-0.4,-0.17,0.05
-1.7317e-01,-0.00999995,-0.44,-0.17,0.05
-1.7315e-01,-0.00999995,-0.4,-0.17,0.00999995
-1.7314e-01,-0.00999995,-0.44,-0.17,0.05
-1.7312e-01,-0.00999995,-0.44,-0.17,0.05
-1.7310e-01,-0.05,-0.48,-0.21,0.05
-1.7309e-01,-0.05,-0.4,-0.17,0.05
-1.7307e-01,-0.00999995,-0.48,-0.17,0.05
-1.7306e-01,-0.00999995,-0.4,-0.17,0.05
-1.7304e-01,-0.05,-0.44,-0.17,0.05
-1.7302e-01,-0.00999995,-0.44,-0.17,0.05
-1.7301e-01,-0.00999995,-0.44,-0.17,0.05
-1.7299e-01,-0.00999995,-0.44,-0.21,0.00999995
-1.7298e-01,-0.05,-0.44,-0.17,0.05
-1.7296e-01,-0.05,-0.44,-0.17,0.05
-1.7294e-01,-0.05,-0.44,-0.17,0.05
-1.7293e-01,-0.05,-0.44,-0.17,0.05
-1.7291e-01,-0.00999995,-0.44,-0.17,0.05
-1.7290e-01,-0.00999995,-0.44,-0.21,0.05
-1.7288e-01,-0.00999995,-0.44,-0.17,0.05
-1.7286e-01,-0.00999995,-0.44,-0.21,0.05
-1.7285e-01,-0.00999995,-0.44,-0.21,0.05
-1.7283e-01,0.03,-0.44,-0.17,0.00999995
-1.7282e-01,-0.00999995,-0.4,-0.17,0.05
-1.7280e-01,0.03,-0.44,-0.21,0.05
-1.7278e-01,-0.00999995,-0.48,-0.17,0.05
-1.7277e-01,-0.00999995,-0.44,-0.17,0.05
-1.7275e-01,-0.00999995,-0.4,-0.17,0.05
-1.7274e-01,-0.00999995,-0.44,-0.17,0.05
-1.7272e-01,-0.05,-0.44,-0.17,0.05
-1.7270e-01,-0.41,-0.8,-0.45,0.13
-1.7269e-01,-0.45,-0.84,-0.45,0.09
-1.7267e-01,-0.45,-0.84,-0.45,0.09
-1.7266e-01,-0.41,-0.84,-0.49,0.09
-1.7264e-01,-0.41,-0.8,-0.45,0.09
-1.7262e-01,-0.37,-0.8,-0.45,0.09
-1.7261e-01,-0.41,-0.8,-0.41,0.09
-1.7259e-01,-0.41,-0.84,-0.45,0.09
-1.7258e-01,-0.41,-0.84,-0.41,0.09
-1.7256e-01,-0.41,-0.8,-0.41,0.09
-1.7254e-01,-0.41,-0.8,-0.45,0.09
-1.7253e-01,-0.41,-0.84,-0.45,0.09
-1.7251e-01,-0.45,-0.8,-0.45,0.05
-1.7250e-01,-0.41,-0.8,-0.45,0.09
-1.7248e-01,-0.41,-0.8,-0.45,0.05
-1.7246e-01,-0.41,-0.8,-0.45,0.09
-1.7245e-01,-0.45,-0.84,-0.41,0.05
-1.7243e-01,-0.41,-0.8,-0.45,0.09
-1.7242e-01,-0.41,-0.8,-0.45,0.09
-1.7240e-01,-0.41,-0.8,-0.45,0.09
-1.7238e-01,-0.45,-0.84,-0.45,0.09
-1.7237e-01,-0.41,-0.84,-0.45,0.09
-1.7235e-01,-0.41,-0.84,-0.45,0.09
-1.7234e-01,-0.41,-0.8,-0.41,0.09
-1.7232e-01,-0.45,-0.8,-0.49,0.09
-1.7230e-01,-0.41,-0.8,-0.45,0.09
-1.7229e-01,-0.41,-0.8,-0.45,0.09
-1.7227e-01,-0.37,-0.8,-0.41,0.09
-1.7226e-01,-0.41,-0.8,-0.45,0.09
-1.7224e-01,-0.41,-0.8,-0.45,0.09
-1.7222e-01,-0.41,-0.8,-0.45,0.09
-1.7221e-01,-0.41,-0.84,-0.45,0.09
-1.7219e-01,-0.41,-0.84,-0.45,0.09
-1.7218e-01,-0.41,-0.8,-0.45,0.09
-1.7216e-01,-0.41,-0.8,-0.45,0.09
-1.7214e-01,-0.41,-0.8,-0.45,0.09
-1.7213e-01,-0.41,-0.8,-0.45,0.09
-1.7211e-01,-0.41,-0.84,-0.45,0.09
-1.7210e-01,-0.41,-0.84,-0.45,0.09
-1.7208e-01,-0.41,-0.8,-0.45,0.09
-1.7206e-01,-0.41,-0.8,-0.45,0.09
-1.7205e-01,-0.45,-0.8,-0.45,0.09
-1.7203e-01,-0.41,-0.84,-0.45,0.09
-1.7202e-01,-0.45,-0.84,-0.45,0.09
-1.7200e-01,-0.41,-0.8,-0.41,0.09
-1.7198e-01,-0.41,-0.8,-0.45,0.09
-1.7197e-01,-0.41,-0.8,-0.41,0.09
-1.7195e-01,-0.41,-0.8,-0.45,0.09
-1.7194e-01,-0.41,-0.8,-0.45,0.09
-1.7192e-01,-0.41,-0.44,-0.33,0.09
-1.7190e-01,-0.41,-0.44,-0.33,0.13
-1.7189e-01,-0.41,-0.44,-0.29,0.13
-1.7187e-01,-0.41,-0.44,-0.29,0.13
-1.7186e-01,-0.41,-0.4,-0.33,0.13
-1.7184e-01,-0.45,-0.44,-0.29,0.13
-1.7182e-01,-0.41,-0.44,-0.29,0.13
-1.7181e-01,-0.41,-0.4,-0.33,0.17
-1.7179e-01,-0.41,-0.44,-0.29,0.13
-1.7178e-01,-0.41,-0.44,-0.29,0.13
-1.7176e-01,-0.41,-0.44,-0.29,0.13
-1.7174e-01,-0.41,-0.44,-0.29,0.09
-1.7173e-01,-0.41,-0.44,-0.33,0.13
-1.7171e-01,-0.45,-0.44,-0.29,0.13
-1.7170e-01,-0.45,-0.4,-0.33,0.13
-1.7168e-01,-0.41,-0.44,-0.29,0.13
-1.7166e-01,-0.41,-0.44,-0.29,0.13
-1.7165e-01,-0.41,-0.44,-0.33,0.13
-1.7163e-01,-0.41,-0.44,-0.29,0.13
-1.7162e-01,-0.41,-0.44,-0.29,0.09
-1.7160e-01,-0.45,-0.44,-0.33,0.13
-1.7158e-01,-0.41,-0.4,-0.29,0.13
-1.7157e-01,-0.41,-0.44,-0.29,0.13
-1.7155e-01,-0.41,-0.44,-0.29,0.13
-1.7154e-01,-0.41,-0.44,-0.29,0.13
-1.7152e-01,-0.41,-0.44,-0.33,0.13
-1.7150e-01,-0.45,-0.44,-0.29,0.13
-1.7149e-01,-0.41,-0.44,-0.29,0.09
-1.7147e-01,-0.41,-0.44,-0.29,0.13
-1.7146e-01,-0.41,-0.44,-0.29,0.09
-1.7144e-01,-0.41,-0.44,-0.29,0.13
-1.7142e-01,-0.41,-0.44,-0.29,0.13
-1.7141e-01,-0.41,-0.4,-0.29,0.13
-1.7139e-01,-0.41,-0.4,-0.29,0.13
-1.7138e-01,-0.41,-0.44,-0.29,0.13
-1.7136e-01,-0.41,-0.44,-0.33,0.13
-1.7134e-01,-0.41,-0.44,-0.29,0.13
-1.7133e-01,-0.41,-0.44,-0.29,0.09
-1.7131e-01,-0.41,-0.44,-0.29,0.13
-1.7130e-01,-0.41,-0.44,-0.29,0.13
-1.7128e-01,-0.41,-0.44,-0.29,0.13
-1.7126e-01,-0.41,-0.44,-0.29,0.13
-1.7125e-01,-0.41,-0.4,-0.29,0.13
-1.7123e-01,-0.41,-0.4,-0.33,0.13
-1.7122e-01,-0.41,-0.44,-0.29,0.13
-1.7120e-01,-0.41,-0.44,-0.29,0.13
-1.7118e-01,-0.41,-0.44,-0.29,0.13
-1.7117e-01,-0.41,-0.8,-0.41,0.13
-1.7115e-01,-0.41,-0.8,-0.41,0.09
-1.7114e-01,-0.41,-0.8,-0.41,0.09
-1.7112e-01,-0.41,-0.84,-0.41,0.09
-1.7110e-01,-0.41,-0.84,-0.45,0.09
-1.7109e-01,-0.41,-0.8,-0.45,0.09
-1.7107e-01,-0.41,-0.8,-0.45,0.09
-1.7106e-01,-0.41,-0.84,-0.45,0.05
-1.7104e-01,-0.41,-0.84,-0.41,0.09
-1.7102e-01,-0.41,-0.84,-0.49,0.09
-1.7101e-01,-0.41,-0.8,-0.45,0.09
-1.7099e-01,-0.41,-0.8,-0.45,0.09
-1.7098e-01,-0.41,-0.8,-0.45,0.09
-1.7096e-01,-0.41,-0.8,-0.45,0.05
-1.7094e-01,-0.41,-0.8,-0.45,0.09
-1.7093e-01,-0.41,-0.8,-0.45,0.09
-1.7091e-01,-0.41,-0.8,-0.45,0.09
-1.7090e-01,-0.41,-0.8,-0.45,0.09
-1.7088e-01,-0.41,-0.8,-0.41,0.09
-1.7086e-01,-0.41,-0.8,-0.41,0.09
-1.7085e-01,-0.41,-0.8,-0.45,0.09
-1.7083e-01,-0.37,-0.84,-0.45,0.09
-1.7082e-01,-0.41,-0.8,-0.41,0.09
-1.7080e-01,-0.41,-0.8,-0.45,0.09
-1.7078e-01,-0.41,-0.8,-0.45,0.05
-1.7077e-01,-0.41,-0.8,-0.45,0.05
-1.7075e-01,-0.41,-0.8,-0.41,0.09
-1.7074e-01,-0.41,-0.84,-0.45,0.05
-1.7072e-01,-0.41,-0.84,-0.45,0.09
-1.7070e-01,-0.41,-0.8,-0.45,0.09
-1.7069e-01,-0.41,-0.84,-0.45,0.05
-1.7067e-01,-0.41,-0.84,-0.45,0.09
-1.7066e-01,-0.41,-0.8,-0.57,0.13
-1.7064e-01,-0.41,-0.8,-0.57,0.17
-1.7062e-01,-0.41,-0.8,-0.57,0.21
-1.7061e-01,-0.41,-0.44,-0.41,0.25
-1.7059e-01,-0.41,-0.44,-0.45,0.21
-1.7058e-01,-0.41,-0.44,-0.45,0.21
-1.7056e-01,-0.41,-0.48,-0.45,0.25
-1.7054e-01,-0.41,-0.44,-0.41,0.21
-1.7053e-01,-0.41,-0.44,-0.45,0.25
-1.7051e-01,-0.41,-0.4,-0.41,0.21
-1.7050e-01,-0.41,-0.44,-0.45,0.21
-1.7048e-01,-0.41,-0.44,-0.45,0.25
-1.7046e-01,-0.45,-0.44,-0.41,0.21
-1.7045e-01,-0.41,-0.4,-0.45,0.25
-1.7043e-01,-0.41,-0.44,-0.41,0.21
-1.7042e-01,-0.41,-0.44,-0.45,0.21
-1.7040e-01,-0.41,-0.4,-0.45,0.21
-1.7038e-01,-0.41,-0.4,-0.45,0.25
-1.7037e-01,-0.41,-0.44,-0.41,0.25
-1.7035e-01,-0.41,-0.44,-0.45,0.21
-1.7034e-01,-0.37,-0.44,-0.45,0.21
-1.7032e-01,-0.41,-0.44,-0.45,0.21
-1.7030e-01,-0.41,-0.48,-0.45,0.25
-1.7029e-01,-0.41,-0.44,-0.41,0.25
-1.7027e-01,-0.41,-0.44,-0.45,0.21
-1.7026e-01,-0.41,-0.44,-0.41,0.21
-1.7024e-01,-0.41,-0.4,-0.41,0.21
-1.7022e-01,-0.41,-0.44,-0.45,0.21
-1.7021e-01,-0.41,-0.44,-0.41,0.21
-1.7019e-01,-0.41,-0.44,-0.45,0.25
-1.7018e-01,-0.41,-0.44,-0.41,0.25
-1.7016e-01,-0.41,-0.44,-0.41,0.21
-1.7014e-01,-0.41,-0.44,-0.45,0.21
-1.7013e-01,-0.41,-0.44,-0.45,0.21
-1.7011e-01,-0.41,-0.4,-0.33,0.17
-1.7010e-01,-0.41,-0.48,-0.29,0.09
-1.7008e-01,-0.41,-0.44,-0.29,0.13
-1.7006e-01,-0.41,-0.44,-0.33,0.13
-1.7005e-01,-0.45,-0.44,-0.29,0.13
-1.7003e-01,-0.41,-0.44,-0.29,0.13
-1.7002e-01,-0.41,-0.44,-0.29,0.13
-1.7000e-01,-0.41,-0.4,-0.29,0.13
-1.6998e-01,-0.41,-0.4,-0.33,0.13
-1.6997e-01,-0.41,-0.44,-0.29,0.13
-1.6995e-01,-0.41,-0.44,-0.29,0.13
-1.6994e-01,-0.41,-0.44,-0.29,0.13
-1.6992e-01,-0.41,-0.44,-0.29,0.13
-1.6990e-01,-0.41,-0.44,-0.29,0.13
-1.6989e-01,-0.41,-0.4,-0.29,0.09
-1.6987e-01,-0.41,-0.44,-0.29,0.13
-1.6986e-01,-0.41,-0.4,-0.29,0.13
-1.6984e-01,-0.41,-0.4,-0.29,0.09
-1.6982e-01,-0.41,-0.4,-0.33,0.13
-1.6981e-01,-0.41,-0.44,-0.29,0.09
-1.6979e-01,-0.41,-0.44,-0.29,0.13
-1.6978e-01,-0.41,-0.44,-0.29,0.13
-1.6976e-01,-0.41,-0.44,-0.33,0.09
-1.6974e-01,-0.41,-0.44,-0.29,0.13
-1.6973e-01,-0.45,-0.4,-0.29,0.13
-1.6971e-01,-0.45,-0.44,-0.29,0.13
-1.6970e-01,-0.41,-0.44,-0.29,0.09
-1.6968e-01,-0.41,-0.44,-0.33,0.13
-1.6966e-01,-0.41,-0.4,-0.29,0.13
-1.6965e-01,-0.41,-0.48,-0.33,0.09
-1.6963e-01,-0.41,-0.44,-0.29,0.13
-1.6962e-01,-0.41,-0.44,-0.29,0.13
-1.6960e-01,-0.41,-0.44,-0.29,0.13
-1.6958e-01,-0.41,-0.44,-0.33,0.13
-1.6957e-01,-0.41,-0.4,-0.29,0.13
-1.6955e-01,-0.41,-0.44,-0.29,0.13
-1.6954e-01,-0.41,-0.44,-0.33,0.13
-1.6952e-01,-0.41,-0.44,-0.29,0.13
-1.6950e-01,-0.41,-0.44,-0.29,0.09
-1.6949e-01,-0.45,-0.44,-0.29,0.13
-1.6947e-01,-0.41,-0.44,-0.33,0.13
-1.6946e-01,-0.41,-0.44,-0.29,0.13
-1.6944e-01,-0.41,-0.4,-0.29,0.13
-1.6942e-01,-0.41,-0.44,-0.33,0.13
-1.6941e-01,-0.41,-0.44,-0.45,0.21
-1.6939e-01,-0.41,-0.44,-0.41,0.25
-1.6938e-01,-0.41,-0.44,-0.45,0.25
-1.6936e-01,-0.41,-0.44,-0.45,0.25
-1.6934e-01,-0.41,-0.4,-0.45,0.21
-1.6933e-01,-0.41,-0.44,-0.45,0.25
-1.6931e-01,-0.41,-0.44,-0.45,0.21
-1.6930e-01,-0.41,-0.44,-0.45,0.21
-1.6928e-01,-0.41,-0.44,-0.45,0.25
-1.6926e-01,-0.45,-0.4,-0.45,0.25
-1.6925e-01,-0.41,-0.44,-0.45,0.25
-1.6923e-01,-0.37,-0.44,-0.45,0.21
-1.6922e-01,-0.41,-0.44,-0.45,0.21
-1.6920e-01,-0.41,-0.44,-0.41,0.25
-1.6918e-01,-0.41,-0.44,-0.45,0.25
-1.6917e-01,-0.41,-0.44,-0.45,0.25
-1.6915e-01,-0.45,-0.44,-0.45,0.25
-1.6914e-01,-0.41,-0.44,-0.41,0.25
-1.6912e-01,-0.41,-0.4,-0.45,0.25
-1.6910e-01,-0.41,-0.44,-0.45,0.21
-1.6909e-01,-0.41,-0.44,-0.45,0.25
-1.6907e-01,-0.45,-0.44,-0.41,0.25
-1.6906e-01,-0.45,-0.44,-0.41,0.21
-1.6904e-01,-0.41,-0.44,-0.41,0.25
-1.6902e-01,-0.41,-0.44,-0.41,0.25
-1.6901e-01,-0.41,-0.44,-0.45,0.21
-1.6899e-01,-0.41,-0.44,-0.45,0.25
-1.6898e-01,-0.41,-0.44,-0.41,0.25
-1.6896e-01,-0.41,-0.44,-0.45,0.25
-1.6894e-01,-0.41,-0.44,-0.45,0.21
-1.6893e-01,-0.41,-0.4,-0.41,0.21
-1.6891e-01,-0.41,-0.4,-0.45,0.25
-1.6890e-01,-0.45,-0.44,-0.41,0.21
-1.6888e-01,-0.41,-0.44,-0.45,0.25
-1.6886e-01,-0.41,-0.44,-0.41,0.21
-1.6885e-01,-0.41,-0.4,-0.45,0.21
-1.6883e-01,-0.41,-0.44,-0.45,0.21
-1.6882e-01,-0.41,-0.4,-0.45,0.25
-1.6880e-01,-0.45,-0.44,-0.45,0.21
-1.6878e-01,-0.41,-0.44,-0.45,0.21
-1.6877e-01,-0.41,-0.44,-0.45,0.21
-1.6875e-01,-0.41,-0.44,-0.45,0.25
-1.6874e-01,-0.41,-0.44,-0.45,0.25
-1.6872e-01,-0.41,-0.44,-0.45,0.21
-1.6870e-01,-0.41,-0.44,-0.45,0.21
-1.6869e-01,-0.41,-0.44,-0.45,0.25
-1.6867e-01,-0.41,-0.44,-0.45,0.25
-1.6866e-01,-0.41,-0.44,-0.45,0.25
-1.6864e-01,-0.41,-0.44,-0.41,0.25
-1.6862e-01,-0.41,-0.44,-0.41,0.21
-1.6861e-01,-0.37,-0.44,-0.45,0.21
-1.6859e-01,-0.37,-0.4,-0.45,0.21
-1.6858e-01,-0.41,-0.44,-0.45,0.25
-1.6856e-01,-0.05,-0.08,-0.17,0.21
-1.6854e-01,-0.00999995,-0.04,-0.17,0.17
-1.6853e-01,-0.00999995,-0.08,-0.13,0.17
-1.6851e-01,-0.00999995,-0.04,-0.17,0.17
-1.6850e-01,-0.05,-0.04,-0.17,0.21
-1.6848e-01,-0.05,-0.04,-0.17,0.17
-1.6846e-01,-0.00999995,-0.08,-0.21,0.17
-1.6845e-01,-0.00999995,-0.04,-0.17,0.17
-1.6843e-01,-0.00999995,-0.08,-0.17,0.17
-1.6842e-01,-0.05,-0.08,-0.17,0.17
-1.6840e-01,-0.00999995,-0.04,-0.17,0.17
-1.6838e-01,0.03,-0.04,-0.17,0.17
-1.6837e-01,-0.00999995,-0.08,-0.17,0.13
-1.6835e-01,-0.05,-0.04,-0.21,0.17
-1.6834e-01,-0.00999995,-0.04,-0.17,0.21
-1.6832e-01,-0.00999995,-0.04,-0.17,0.21
-1.6830e-01,-0.00999995,-0.04,-0.17,0.21
-1.6829e-01,-0.00999995,-0.04,-0.17,0.17
-1.6827e-01,-0.00999995,-0.04,-0.17,0.17
-1.6826e-01,-0.00999995,-0.04,-0.17,0.21
-1.6824e-01,-0.00999995,-0.08,-0.17,0.17
-1.6822e-01,-0.00999995,-0.04,-0.21,0.17
-1.6821e-01,-0.00999995,-0.08,-0.17,0.21
-1.6819e-01,-0.05,-0.08,-0.17,0.17
-1.6818e-01,-0.00999995,-0.04,-0.21,0.21
-1.6816e-01,-0.00999995,-0.08,-0.17,0.21
-1.6814e-01,-0.00999995,-0.08,-0.17,0.21
-1.6813e-01,-0.00999995,-0.04,-0.17,0.17
-1.6811e-01,0.03,-0.04,-0.17,0.17
-1.6810e-01,-0.00999995,-0.04,-0.17,0.21
-1.6808e-01,-0.00999995,-0.04,-0.17,0.13
-1.6806e-01,-0.05,-0.04,-0.21,0.21
-1.6805e-01,-0.00999995,-0.08,-0.17,0.21
-1.6803e-01,-0.00999995,-0.08,-0.21,0.17
-1.6802e-01,-0.00999995,-0.08,-0.17,0.17
-1.6800e-01,-0.00999995,-0.04,-0.17,0.17
-1.6798e-01,-0.00999995,-0.04,-0.21,0.21
-1.6797e-01,-0.05,-0.08,-0.17,0.17
-1.6795e-01,-0.00999995,-5.96046e-09,-0.17,0.21
-1.6794e-01,-0.00999995,-0.04,-0.17,0.17
-1.6792e-01,-0.00999995,-0.08,-0.21,0.17
-1.6790e-01,-0.05,-0.04,-0.17,0.17
-1.6789e-01,-0.00999995,-0.04,-0.17,0.17
-1.6787e-01,-0.00999995,-0.08,-0.17,0.17
-1.6786e-01,-0.00999995,-0.08,-0.17,0.17
-1.6784e-01,-0.00999995,-0.08,-0.17,0.17
-1.6782e-01,-0.00999995,-0.04,-0.17,0.17
-1.6781e-01,-0.41,-0.44,-0.45,0.21
-1.6779e-01,-0.41,-0.44,-0.45,0.25
-1.6778e-01,-0.41,-0.44,-0.41,0.25
-1.6776e-01,-0.41,-0.44,-0.45,0.25
-1.6774e-01,-0.41,-0.44,-0.45,0.25
-1.6773e-01,-0.41,-0.4,-0.45,0.21
-1.6771e-01,-0.41,-0.44,-0.45,0.25
-1.6770e-01,-0.41,-0.44,-0.45,0.25
-1.6768e-01,-0.41,-0.44,-0.41,0.25
-1.6766e-01,-0.41,-0.44,-0.45,0.21
-1.6765e-01,-0.41,-0.4,-0.45,0.25
-1.6763e-01,-0.41,-0.44,-0.45,0.25
-1.6762e-01,-0.41,-0.44,-0.45,0.25
-1.6760e-01,-0.41,-0.44,-0.41,0.21
-1.6758e-01,-0.37,-0.44,-0.45,0.25
-1.6757e-01,-0.41,-0.4,-0.45,0.25
-1.6755e-01,-0.41,-0.44,-0.45,0.25
-1.6754e-01,-0.37,-0.44,-0.45,0.25
-1.6752e-01,-0.41,-0.44,-0.45,0.21
-1.6750e-01,-0.37,-0.44,-0.45,0.21
-1.6749e-01,-0.41,-0.4,-0.45,0.25
-1.6747e-01,-0.41,-0.4,-0.45,0.25
-1.6746e-01,-0.41,-0.4,-0.45,0.21
-1.6744e-01,-0.41,-0.44,-0.41,0.25
-1.6742e-01,-0.41,-0.44,-0.45,0.25
-1.6741e-01,-0.41,-0.44,-0.45,0.25
-1.6739e-01,-0.41,-0.4,-0.45,0.25
-1.6738e-01,-0.41,-0.4,-0.41,0.21
-1.6736e-01,-0.45,-0.04,-0.33,0.25
-1.6734e-01,-0.45,-0.08,-0.29,0.29
-1.6733e-01,-0.45,-0.08,-0.29,0.29
-1.6731e-01,-0.41,-0.04,-0.29,0.29
-1.6730e-01,-0.41,-0.04,-0.29,0.29
-1.6728e-01,-0.41,-0.04,-0.29,0.25
-1.6726e-01,-0.00999995,0.32,-0.05,0.25
-1.6725e-01,-0.00999995,0.36,-0.05,0.25
-1.6723e-01,-0.00999995,0.32,-0.01,0.25
-1.6722e-01,-0.00999995,0.36,-0.05,0.25
-1.6720e-01,-0.05,0.36,-0.05,0.25
-1.6718e-01,-0.00999995,0.36,-0.05,0.25
-1.6717e-01,-0.00999995,0.36,-0.05,0.25
-1.6715e-01,-0.00999995,0.32,-0.05,0.25
-1.6714e-01,-0.00999995,0.36,-0.05,0.25
-1.6712e-01,-0.00999995,0.36,-0.05,0.21
-1.6710e-01,-0.05,0.32,-0.05,0.25
-1.6709e-01,-0.05,0.32,-0.05,0.25
-1.6707e-01,-0.05,0.36,-0.05,0.25
-1.6706e-01,-0.05,0.36,-0.05,0.21
-1.6704e-01,-0.05,0.36,-0.05,0.21
-1.6702e-01,0.03,0.36,-0.01,0.25
-1.6701e-01,-0.00999995,0.32,-0.05,0.25
-1.6699e-01,-0.00999995,0.36,-0.05,0.25
-1.6698e-01,-0.05,0.36,-0.05,0.25
-1.6696e-01,-0.05,0.32,-0.01,0.21
-1.6694e-01,-0.00999995,0.32,-0.05,0.25
-1.6693e-01,-0.05,0.36,-0.05,0.21
-1.6691e-01,-0.00999995,0.36,-0.05,0.25
-1.6690e-01,-0.05,0.36,-0.05,0.25
-1.6688e-01,-0.00999995,0.32,-0.01,0.25
-1.6686e-01,-0.05,0.36,-0.05,0.25
-1.6685e-01,-0.00999995,0.32,-0.05,0.25
-1.6683e-01,-0.00999995,0.36,-0.05,0.25
-1.6682e-01,-0.00999995,-0.04,-0.17,0.21
-1.6680e-01,-0.00999995,-0.04,-0.17,0.17
-1.6678e-01,-0.00999995,-0.08,-0.17,0.21
-1.6677e-01,-0.00999995,-0.04,-0.17,0.21
-1.6675e-01,-0.00999995,-0.08,-0.21,0.21
-1.6674e-01,-0.05,-0.08,-0.17,0.21
-1.6672e-01,-0.00999995,-0.08,-0.17,0.17
-1.6670e-01,-0.00999995,-0.08,-0.21,0.17
-1.6669e-01,-0.00999995,-0.08,-0.17,0.17
-1.6667e-01,-0.00999995,-0.08,-0.17,0.17
-1.6666e-01,-0.05,-0.04,-0.17,0.17
-1.6664e-01,-0.00999995,-0.08,-0.17,0.17
-1.6662e-01,-0.00999995,-0.08,-0.17,0.21
-1.6661e-01,-0.00999995,-0.04,-0.17,0.21
-1.6659e-01,-0.00999995,-0.08,-0.21,0.17
-1.6658e-01,-0.05,-0.04,-0.17,0.17
-1.6656e-01,-0.00999995,-0.08,-0.17,0.17
-1.6654e-01,-0.05,-0.08,-0.17,0.17
-1.6653e-01,-0.05,-0.04,-0.17,0.17
-1.6651e-01,0.03,-0.04,-0.17,0.17
-1.6650e-01,-0.00999995,-0.04,-0.17,0.21
-1.6648e-01,-0.05,-0.04,-0.17,0.17
-1.6646e-01,-0.00999995,-0.08,-0.17,0.17
-1.6645e-01,-0.00999995,-0.04,-0.17,0.21
-1.6643e-01,-0.00999995,-0.08,-0.21,0.17
-1.6642e-01,-0.00999995,-0.04,-0.17,0.21
