613/TEK00003.CSV

Model,TBS2104X
Firmware Version,v1.31.14

Point Format,Y,,,
Horizontal Units,S,,,
Horizontal Scale,0.004,,,
Sample Interval,3.2e-06,,,
Filter Frequency,2e+08,,,
Record Length,20000,,,
Gating,0.0% to 100.0%,0.0% to 100.0%,0.0% to 100.0%,0.0% to 100.0%
Probe Attenuation,1,1,1,1
Vertical Units,V,V,V,A
Vertical Offset,0,0,0,0
Vertical Scale,1,1,1,0.05
Label,,,,
TIME,CH1,CH2,CH3,CH4
-3.8000e-02,-0.00999995,0.36,-0.17,-0.0065
-3.7997e-02,-0.00999995,0.36,-0.17,-0.0065
-3.7994e-02,-0.00999995,0.32,-0.17,-0.0065
-3.7990e-02,-0.05,0.32,-0.17,-0.0065
-3.7987e-02,-0.00999995,0.36,-0.21,-0.0065
-3.7984e-02,-0.05,0.36,-0.21,-0.0065
-3.7981e-02,-0.05,0.32,-0.17,-0.0065
-3.7978e-02,-0.00999995,0.36,-0.17,-0.0045
-3.7974e-02,-0.00999995,0.36,-0.17,-0.0045
-3.7971e-02,-0.00999995,0.36,-0.17,-0.0065
-3.7968e-02,-0.00999995,0.36,-0.17,-0.0045
-3.7965e-02,-0.00999995,0.32,-0.17,-0.0065
-3.7962e-02,-0.00999995,0.32,-0.17,-0.0065
-3.7958e-02,-0.00999995,0.36,-0.17,-0.0065
-3.7955e-02,-0.05,0.36,-0.17,-0.0065
-3.7952e-02,-0.00999995,0.36,-0.21,-0.0045
-3.7949e-02,-0.00999995,0.32,-0.21,-0.0045
-3.7946e-02,-0.00999995,0.36,-0.17,-0.0065
-3.7942e-02,-0.00999995,0.32,-0.17,-0.0065
-3.7939e-02,-0.00999995,0.32,-0.17,-0.0065
-3.7936e-02,-0.00999995,0.32,-0.17,-0.0065
-3.7933e-02,-0.05,0.32,-0.21,-0.0045
-3.7930e-02,-0.05,0.36,-0.21,-0.0065
-3.7926e-02,-0.00999995,0.36,-0.17,-0.0045
-3.7923e-02,-0.05,0.36,-0.21,-0.0065
-3.7920e-02,-0.05,0.32,-0.17,-0.0065
-3.7917e-02,-0.00999995,0.32,-0.17,-0.0045
-3.7914e-02,-0.00999995,0.32,-0.17,-0.0065
-3.7910e-02,-0.00999995,0.36,-0.17,-0.0045
-3.7907e-02,-0.05,0.36,-0.21,-0.0085
-3.7904e-02,-0.05,0.32,-0.01,-0.0065
-3.7901e-02,-0.05,0.32,-0.05,0.0055
-3.7898e-02,-0.00999995,0.32,-0.05,0.0015
-3.7894e-02,-0.00999995,0.36,-0.05,-0.0065
-3.7891e-02,-0.00999995,0.36,-0.05,0.0015
-3.7888e-02,-0.00999995,0.36,-0.05,0.0015
-3.7885e-02,-0.05,0.36,-0.05,-0.0045
-3.7882e-02,-0.00999995,0.36,-0.01,0.0035
-3.7878e-02,-0.05,0.36,-0.05,-0.000499995
-3.7875e-02,-0.00999995,0.36,-0.01,-0.0065
-3.7872e-02,-0.00999995,0.36,-0.01,0.0015
-3.7869e-02,-0.00999995,0.32,-0.01,-0.0025
-3.7866e-02,-0.00999995,0.32,-0.05,-0.0045
-3.7862e-02,-0.05,0.36,-0.01,-0.000499995
-3.7859e-02,-0.05,0.36,-0.05,-0.0025
-3.7856e-02,-0.00999995,0.32,-0.05,-0.0045
-3.7853e-02,-0.00999995,0.36,-0.05,-0.000499995
-3.7850e-02,-0.00999995,0.36,-0.05,0.0015
-3.7846e-02,-0.05,0.36,-0.05,-0.0025
-3.7843e-02,-0.00999995,0.36,-0.01,-0.000499995
-3.7840e-02,-0.05,0.36,-0.05,-0.000499995
-3.7837e-02,-0.05,0.32,-0.01,-0.000499995
-3.7834e-02,-0.00999995,0.32,-0.05,-0.000499995
-3.7830e-02,-0.00999995,0.36,-0.05,-0.0025
-3.7827e-02,-0.00999995,0.32,-0.05,-0.000499995
-3.7824e-02,-0.05,0.36,-0.01,-0.000499995
-3.7821e-02,-0.00999995,0.32,-0.05,-0.000499995
-3.7818e-02,-0.00999995,0.36,-0.01,-0.000499995
-3.7814e-02,-0.05,0.32,-0.05,-0.000499995
-3.7811e-02,-0.05,0.32,-0.05,-0.000499995
-3.7808e-02,-0.05,0.32,-0.01,-0.000499995
-3.7805e-02,-0.00999995,0.36,-0.01,-0.000499995
-3.7802e-02,-0.00999995,0.32,-0.01,-0.0025
-3.7798e-02,-0.00999995,0.32,-0.01,-0.000499995
-3.7795e-02,-0.00999995,0.36,-0.05,-0.000499995
-3.7792e-02,-0.00999995,0.32,-0.05,-0.000499995
-3.7789e-02,-0.00999995,0.32,-0.05,-0.000499995
-3.7786e-02,-0.05,0.36,-0.05,-0.000499995
-3.7782e-02,-0.00999995,0.4,-0.05,0.0015
-3.7779e-02,-0.05,0.36,-0.01,-0.000499995
-3.7776e-02,-0.00999995,0.32,-0.01,-0.000499995
-3.7773e-02,-0.00999995,0.36,-0.01,-0.000499995
-3.7770e-02,-0.00999995,0.36,-0.01,-0.0025
-3.7766e-02,-0.00999995,0.32,-0.01,-0.000499995
-3.7763e-02,-0.00999995,0.36,-0.05,-0.000499995
-3.7760e-02,-0.00999995,0.32,-0.05,-0.000499995
-3.7757e-02,-0.05,0.36,-0.05,-0.000499995
-3.7754e-02,-0.00999995,0.32,-0.01,-0.000499995
-3.7750e-02,-0.00999995,0.36,-0.01,-0.000499995
-3.7747e-02,-0.00999995,0.32,-0.05,-0.000499995
-3.7744e-02,-0.00999995,0.36,-0.01,-0.000499995
-3.7741e-02,-0.05,0.36,-0.05,-0.000499995
-3.7738e-02,-0.00999995,0.36,-0.05,-0.000499995
-3.7734e-02,-0.05,0.36,-0.01,-0.000499995
-3.7731e-02,-0.00999995,0.36,-0.05,-0.0025
-3.7728e-02,-0.00999995,0.36,-0.05,-0.000499995
-3.7725e-02,-0.00999995,0.36,-0.01,-0.000499995
-3.7722e-02,-0.05,0.36,-0.01,-0.000499995
-3.7718e-02,-0.00999995,0.32,-0.01,-0.000499995
-3.7715e-02,-0.00999995,0.32,-0.05,-0.000499995
-3.7712e-02,-0.05,0.36,-0.05,-0.0025
-3.7709e-02,-0.00999995,0.36,-0.05,-0.000499995
-3.7706e-02,-0.00999995,0.36,-0.05,-0.000499995
-3.7702e-02,-0.00999995,0.32,-0.01,-0.0025
-3.7699e-02,-0.00999995,0.36,-0.05,-0.000499995
-3.7696e-02,-0.05,0.36,-0.05,-0.000499995
-3.7693e-02,-0.05,0.36,-0.05,-0.0025
-3.7690e-02,-0.05,0.32,-0.01,-0.000499995
-3.7686e-02,-0.00999995,0.36,-0.05,-0.000499995
-3.7683e-02,-0.05,0.4,-0.01,-0.000499995
-3.7680e-02,-0.00999995,0.36,-0.01,-0.000499995
-3.7677e-02,-0.00999995,0.36,-0.01,-0.000499995
-3.7674e-02,-0.00999995,0.36,-0.05,-0.000499995
-3.7670e-02,-0.05,0.36,-0.01,-0.000499995
-3.7667e-02,-0.05,0.32,-0.05,-0.000499995
-3.7664e-02,-0.05,0.36,-0.05,-0.000499995
-3.7661e-02,-0.05,0.36,-0.05,-0.000499995
-3.7658e-02,-0.05,0.36,-0.01,-0.0025
-3.7654e-02,-0.00999995,0.36,-0.05,-0.000499995
-3.7651e-02,-0.05,0.36,-0.05,-0.000499995
-3.7648e-02,-0.05,0.36,-0.05,-0.000499995
-3.7645e-02,-0.05,0.36,-0.05,-0.000499995
-3.7642e-02,-0.05,0.32,-0.05,-0.000499995
-3.7638e-02,-0.00999995,0.32,-0.05,-0.000499995
-3.7635e-02,-0.00999995,0.36,-0.01,-0.000499995
-3.7632e-02,-0.00999995,0.36,-0.01,-0.000499995
-3.7629e-02,-0.00999995,0.36,-0.05,-0.000499995
-3.7626e-02,-0.00999995,0.32,-0.01,-0.0025
-3.7622e-02,-0.05,0.32,-0.05,-0.0025
-3.7619e-02,-0.00999995,0.36,-0.01,-0.000499995
-3.7616e-02,-0.05,0.36,-0.05,-0.000499995
-3.7613e-02,-0.05,0.36,-0.05,-0.000499995
-3.7610e-02,-0.00999995,0.32,-0.05,-0.000499995
-3.7606e-02,-0.00999995,0.36,-0.05,-0.0025
-3.7603e-02,-0.05,0.36,-0.01,-0.000499995
-3.7600e-02,-0.00999995,0.36,-0.05,-0.000499995
-3.7597e-02,-0.00999995,0.36,-0.05,-0.000499995
-3.7594e-02,-0.00999995,0.36,-0.05,-0.000499995
-3.7590e-02,-0.05,0.36,-0.05,-0.000499995
-3.7587e-02,-0.05,0.32,-0.05,-0.000499995
-3.7584e-02,-0.05,0.36,-0.01,-0.000499995
-3.7581e-02,-0.00999995,0.36,-0.05,-0.000499995
-3.7578e-02,-0.05,0.32,-0.05,-0.000499995
-3.7574e-02,-0.00999995,0.36,-0.05,-0.000499995
-3.7571e-02,-0.00999995,0.32,-0.05,-0.0025
-3.7568e-02,-0.05,0.32,-0.05,-0.0025
-3.7565e-02,-0.05,0.36,-0.09,-0.000499995
-3.7562e-02,-0.00999995,0.36,-0.01,-0.000499995
-3.7558e-02,-0.05,0.32,-0.01,-0.000499995
-3.7555e-02,-0.00999995,0.36,-0.05,-0.000499995
-3.7552e-02,-0.05,0.32,-0.01,-0.000499995
-3.7549e-02,-0.05,0.32,-0.01,-0.000499995
-3.7546e-02,-0.00999995,0.36,-0.05,-0.000499995
-3.7542e-02,-0.05,0.32,-0.05,-0.000499995
-3.7539e-02,-0.00999995,0.36,-0.05,-0.0025
-3.7536e-02,-0.00999995,0.36,-0.05,-0.0025
-3.7533e-02,-0.00999995,0.32,-0.05,-0.000499995
-3.7530e-02,-0.05,0.36,-0.05,-0.000499995
-3.7526e-02,-0.05,0.32,-0.01,-0.0025
-3.7523e-02,-0.00999995,0.32,-0.01,-0.000499995
-3.7520e-02,-0.00999995,0.32,-0.01,-0.000499995
-3.7517e-02,-0.00999995,0.32,-0.05,-0.000499995
-3.7514e-02,-0.05,0.32,-0.05,-0.000499995
-3.7510e-02,-0.05,0.36,-0.05,-0.000499995
-3.7507e-02,-0.00999995,0.32,-0.05,-0.000499995
-3.7504e-02,-0.05,0.36,-0.01,-0.0025
-3.7501e-02,-0.00999995,0.36,-0.05,-0.0025
-3.7498e-02,-0.05,0.36,-0.05,-0.0025
-3.7494e-02,-0.05,0.32,-0.01,-0.000499995
-3.7491e-02,-0.05,0.32,-0.05,-0.000499995
-3.7488e-02,-0.00999995,0.32,-0.05,-0.000499995
-3.7485e-02,-0.00999995,0.36,-0.05,-0.000499995
-3.7482e-02,-0.05,0.32,-0.01,-0.0025
-3.7478e-02,-0.00999995,0.32,-0.05,-0.000499995
-3.7475e-02,-0.05,0.32,-0.01,-0.000499995
-3.7472e-02,-0.05,0.32,-0.05,-0.000499995
-3.7469e-02,-0.05,0.32,-0.05,-0.000499995
-3.7466e-02,-0.00999995,0.36,-0.05,-0.000499995
-3.7462e-02,-0.05,0.32,-0.05,-0.000499995
-3.7459e-02,-0.05,0.32,-0.05,-0.000499995
-3.7456e-02,-0.00999995,0.36,-0.05,-0.000499995
-3.7453e-02,-0.00999995,0.32,-0.01,-0.000499995
-3.7450e-02,-0.05,0.36,-0.05,-0.000499995
-3.7446e-02,-0.00999995,0.32,-0.05,-0.000499995
-3.7443e-02,-0.00999995,0.32,-0.05,-0.000499995
-3.7440e-02,-0.00999995,0.36,-0.05,-0.000499995
-3.7437e-02,-0.00999995,0.36,-0.05,-0.000499995
-3.7434e-02,-0.00999995,0.32,-0.05,-0.000499995
-3.7430e-02,-0.00999995,0.32,-0.05,-0.000499995
-3.7427e-02,-0.00999995,0.32,-0.05,-0.000499995
-3.7424e-02,-0.00999995,0.32,-0.01,-0.000499995
-3.7421e-02,-0.00999995,0.32,-0.05,0.0015
-3.7418e-02,-0.00999995,0.36,-0.05,-0.000499995
-3.7414e-02,-0.00999995,0.32,-0.01,-0.0025
-3.7411e-02,-0.05,0.36,-0.05,-0.000499995
-3.7408e-02,-0.05,0.36,-0.05,-0.0025
-3.7405e-02,-0.00999995,0.36,-0.05,-0.0025
-3.7402e-02,-0.05,0.32,-0.05,-0.000499995
-3.7398e-02,-0.00999995,0.36,-0.05,-0.000499995
-3.7395e-02,-0.05,0.32,-0.01,-0.000499995
-3.7392e-02,-0.00999995,0.32,-0.05,-0.000499995
-3.7389e-02,-0.00999995,0.36,-0.01,-0.000499995
-3.7386e-02,-0.00999995,0.32,-0.05,-0.000499995
-3.7382e-02,-0.05,0.32,-0.01,-0.000499995
-3.7379e-02,-0.00999995,0.32,-0.05,-0.000499995
-3.7376e-02,-0.00999995,0.36,-0.01,-0.000499995
-3.7373e-02,-0.00999995,0.32,-0.05,-0.000499995
-3.7370e-02,-0.00999995,0.36,-0.05,-0.000499995
-3.7366e-02,-0.05,0.36,-0.01,-0.000499995
-3.7363e-02,-0.00999995,0.36,-0.05,-0.000499995
-3.7360e-02,-0.00999995,0.36,-0.01,-0.000499995
-3.7357e-02,-0.05,0.36,-0.05,-0.000499995
-3.7354e-02,-0.05,0.32,-0.01,-0.000499995
-3.7350e-02,-0.05,0.36,-0.05,-0.0025
-3.7347e-02,-0.05,0.36,-0.01,-0.000499995
-3.7344e-02,-0.00999995,0.32,-0.01,-0.000499995
-3.7341e-02,-0.05,0.32,-0.05,-0.000499995
-3.7338e-02,-0.05,0.36,-0.05,-0.000499995
-3.7334e-02,-0.00999995,0.32,-0.05,-0.000499995
-3.7331e-02,-0.05,0.36,-0.05,-0.000499995
-3.7328e-02,-0.05,0.32,-0.01,-0.000499995
-3.7325e-02,-0.05,0.4,-0.05,-0.000499995
-3.7322e-02,-0.05,0.32,-0.05,-0.0025
-3.7318e-02,-0.05,0.36,-0.05,-0.000499995
-3.7315e-02,-0.00999995,0.36,-0.05,-0.0025
-3.7312e-02,-0.00999995,0.36,-0.05,-0.000499995
-3.7309e-02,-0.00999995,0.36,-0.05,-0.000499995
-3.7306e-02,-0.00999995,0.32,-0.01,-0.000499995
-3.7302e-02,-0.00999995,0.36,-0.05,-0.000499995
-3.7299e-02,-0.05,0.36,-0.05,-0.000499995
-3.7296e-02,-0.05,0.32,-0.05,-0.000499995
-3.7293e-02,-0.00999995,0.32,-0.05,-0.000499995
-3.7290e-02,-0.05,0.36,-0.01,-0.000499995
-3.7286e-02,-0.05,0.36,-0.05,-0.000499995
-3.7283e-02,-0.00999995,0.4,-0.01,-0.000499995
-3.7280e-02,-0.00999995,0.36,-0.01,-0.0025
-3.7277e-02,-0.00999995,0.36,-0.01,-0.000499995
-3.7274e-02,-0.00999995,0.36,-0.01,-0.000499995
-3.7270e-02,-0.00999995,0.36,-0.01,-0.000499995
-3.7267e-02,-0.05,0.36,-0.01,-0.000499995
-3.7264e-02,-0.00999995,0.32,-0.05,-0.000499995
-3.7261e-02,-0.05,0.32,-0.01,-0.000499995
-3.7258e-02,-0.00999995,0.32,-0.05,-0.000499995
-3.7254e-02,-0.05,0.32,-0.09,-0.000499995
-3.7251e-02,-0.00999995,0.36,-0.05,-0.000499995
-3.7248e-02,-0.00999995,0.36,-0.01,-0.000499995
-3.7245e-02,-0.05,0.36,-0.01,-0.000499995
-3.7242e-02,-0.05,0.32,-0.05,-0.000499995
-3.7238e-02,-0.00999995,0.36,-0.01,-0.0025
-3.7235e-02,-0.05,0.36,-0.05,-0.000499995
-3.7232e-02,-0.00999995,0.36,-0.01,-0.000499995
-3.7229e-02,-0.00999995,0.36,-0.01,-0.000499995
-3.7226e-02,-0.00999995,0.36,-0.05,-0.000499995
-3.7222e-02,-0.00999995,0.32,-0.05,-0.000499995
-3.7219e-02,-0.00999995,0.32,-0.05,-0.000499995
-3.7216e-02,-0.00999995,0.36,-0.01,-0.0025
-3.7213e-02,-0.00999995,0.36,-0.05,-0.000499995
-3.7210e-02,-0.00999995,0.32,-0.05,-0.000499995
-3.7206e-02,-0.05,0.36,-0.01,-0.000499995
-3.7203e-02,-0.00999995,0.36,-0.01,-0.000499995
-3.7200e-02,-0.00999995,0.36,-0.01,-0.000499995
-3.7197e-02,-0.00999995,0.36,-0.05,-0.000499995
-3.7194e-02,-0.00999995,0.36,-0.05,-0.000499995
-3.7190e-02,-0.00999995,0.32,-0.05,-0.000499995
-3.7187e-02,-0.00999995,0.32,-0.01,-0.000499995
-3.7184e-02,-0.00999995,0.36,-0.05,-0.0025
-3.7181e-02,-0.00999995,0.36,-0.01,-0.000499995
-3.7178e-02,-0.00999995,0.36,-0.01,-0.000499995
-3.7174e-02,-0.05,0.32,-0.05,-0.000499995
-3.7171e-02,-0.00999995,0.36,-0.05,-0.000499995
-3.7168e-02,-0.05,0.32,-0.01,-0.000499995
-3.7165e-02,-0.00999995,0.32,-0.01,-0.000499995
-3.7162e-02,-0.05,0.36,-0.05,-0.000499995
-3.7158e-02,-0.05,0.32,-0.01,-0.000499995
-3.7155e-02,-0.00999995,0.32,-0.01,-0.000499995
-3.7152e-02,-0.05,0.36,-0.05,-0.000499995
-3.7149e-02,-0.00999995,0.32,-0.01,-0.0025
-3.7146e-02,-0.00999995,0.36,-0.05,-0.0025
-3.7142e-02,-0.00999995,0.32,-0.05,-0.000499995
-3.7139e-02,-0.00999995,0.32,-0.05,-0.000499995
-3.7136e-02,-0.00999995,0.36,-0.05,-0.000499995
-3.7133e-02,-0.05,0.32,-0.05,-0.000499995
-3.7130e-02,-0.05,0.32,-0.01,-0.000499995
-3.7126e-02,-0.05,0.36,-0.05,-0.000499995
-3.7123e-02,-0.00999995,0.32,-0.05,-0.0025
-3.7120e-02,-0.00999995,0.32,-0.05,-0.000499995
-3.7117e-02,-0.00999995,0.32,-0.05,0.0015
-3.7114e-02,-0.00999995,0.36,-0.05,-0.000499995
-3.7110e-02,-0.00999995,0.36,-0.01,-0.000499995
-3.7107e-02,-0.00999995,0.36,-0.05,-0.000499995
-3.7104e-02,-0.00999995,0.36,-0.01,-0.000499995
-3.7101e-02,-0.00999995,0.32,-0.01,-0.000499995
-3.7098e-02,-0.00999995,0.36,-0.05,-0.000499995
-3.7094e-02,-0.00999995,0.36,-0.09,-0.000499995
-3.7091e-02,-0.05,0.36,-0.05,-0.000499995
-3.7088e-02,-0.05,0.36,-0.05,-0.000499995
-3.7085e-02,-0.05,0.36,-0.05,-0.000499995
-3.7082e-02,-0.05,0.36,-0.05,-0.000499995
-3.7078e-02,-0.05,0.36,-0.05,-0.000499995
-3.7075e-02,-0.05,0.32,-0.05,-0.000499995
-3.7072e-02,-0.05,0.32,-0.05,-0.000499995
-3.7069e-02,-0.05,0.32,-0.05,-0.0025
-3.7066e-02,-0.00999995,0.36,0.11,0.0015
-3.7062e-02,-0.05,0.36,0.07,-0.0025
-3.7059e-02,-0.00999995,0.4,0.07,0.0135
-3.7056e-02,-0.00999995,0.36,0.07,0.0095
-3.7053e-02,-0.00999995,0.36,0.11,-0.0025
-3.7050e-02,-0.00999995,0.32,0.11,0.0015
-3.7046e-02,-0.00999995,0.36,0.11,0.0115
-3.7043e-02,-0.05,0.32,0.11,0.0015
-3.7040e-02,-0.05,0.32,0.11,-0.000499995
-3.7037e-02,-0.05,0.36,0.11,0.0095
-3.7034e-02,-0.05,0.32,0.11,0.0035
-3.7030e-02,-0.00999995,0.36,0.07,0.0015
-3.7027e-02,-0.05,0.4,0.07,0.0075
-3.7024e-02,-0.05,0.36,0.11,0.0055
-3.7021e-02,-0.00999995,0.36,0.11,-0.000499995
-3.7018e-02,-0.05,0.36,0.11,0.0095
-3.7014e-02,-0.00999995,0.36,0.11,0.0035
-3.7011e-02,-0.00999995,0.32,0.11,0.0035
-3.7008e-02,-0.00999995,0.36,0.11,0.0075
-3.7005e-02,-0.00999995,0.36,0.07,0.0035
-3.7002e-02,-0.05,0.36,0.11,0.0035
-3.6998e-02,-0.00999995,0.36,0.11,0.0035
-3.6995e-02,-0.00999995,0.32,0.11,0.0075
-3.6992e-02,-0.05,0.36,0.07,0.0035
-3.6989e-02,-0.05,0.32,0.11,0.0035
-3.6986e-02,-0.05,0.36,0.11,0.0055
-3.6982e-02,-0.05,0.36,0.07,0.0055
-3.6979e-02,-0.00999995,0.32,0.11,0.0035
-3.6976e-02,-0.05,0.36,0.11,0.0055
-3.6973e-02,-0.05,0.36,0.11,0.0035
-3.6970e-02,-0.05,0.36,0.11,0.0055
-3.6966e-02,-0.05,0.32,0.11,0.0055
-3.6963e-02,-0.00999995,0.36,0.11,0.0035
-3.6960e-02,-0.05,0.36,0.11,0.0035
-3.6957e-02,-0.05,0.36,0.07,0.0055
-3.6954e-02,-0.05,0.36,0.11,0.0055
-3.6950e-02,-0.05,0.32,0.11,0.0055
-3.6947e-02,-0.00999995,0.32,0.11,0.0055
-3.6944e-02,-0.00999995,0.32,0.11,0.0035
-3.6941e-02,-0.05,0.32,0.11,0.0035
-3.6938e-02,-0.00999995,0.36,0.11,0.0035
-3.6934e-02,-0.00999995,0.36,0.11,0.0035
-3.6931e-02,-0.00999995,0.36,0.11,0.0055
-3.6928e-02,-0.00999995,0.36,0.11,0.0035
-3.6925e-02,-0.05,0.36,0.11,0.0055
-3.6922e-02,-0.05,0.36,0.11,0.0035
-3.6918e-02,-0.00999995,0.32,0.11,0.0035
-3.6915e-02,-0.00999995,0.4,0.11,0.0035
-3.6912e-02,-0.00999995,0.32,0.11,0.0035
-3.6909e-02,-0.00999995,0.32,0.11,0.0055
-3.6906e-02,-0.00999995,0.36,0.11,0.0055
-3.6902e-02,-0.00999995,0.32,0.11,0.0015
-3.6899e-02,-0.00999995,0.36,0.11,0.0035
-3.6896e-02,-0.05,0.32,0.11,0.0055
-3.6893e-02,-0.00999995,0.32,0.11,0.0055
-3.6890e-02,-0.05,0.32,0.07,0.0055
-3.6886e-02,-0.05,0.32,0.07,0.0035
-3.6883e-02,-0.00999995,0.36,0.07,0.0035
-3.6880e-02,-0.00999995,0.36,0.11,0.0035
-3.6877e-02,-0.00999995,0.36,0.07,0.0035
-3.6874e-02,-0.00999995,0.32,0.11,0.0055
-3.6870e-02,-0.00999995,0.36,0.11,0.0035
-3.6867e-02,-0.00999995,0.36,0.11,0.0035
-3.6864e-02,-0.05,0.32,0.11,0.0015
-3.6861e-02,-0.05,0.36,0.11,0.0035
-3.6858e-02,-0.00999995,0.36,0.11,0.0015
-3.6854e-02,-0.00999995,0.36,0.11,0.0055
-3.6851e-02,-0.00999995,0.32,0.11,0.0055
-3.6848e-02,-0.05,0.36,0.11,0.0035
-3.6845e-02,-0.05,0.36,0.11,0.0035
-3.6842e-02,-0.05,0.36,0.11,0.0035
-3.6838e-02,-0.05,0.36,0.11,0.0055
-3.6835e-02,-0.00999995,0.32,0.11,0.0035
-3.6832e-02,-0.00999995,0.36,0.11,0.0055
-3.6829e-02,-0.00999995,0.4,0.11,0.0035
-3.6826e-02,-0.05,0.36,0.11,0.0055
-3.6822e-02,-0.05,0.36,0.07,0.0035
-3.6819e-02,-0.00999995,0.36,0.11,0.0035
-3.6816e-02,-0.05,0.36,0.07,0.0035
-3.6813e-02,-0.00999995,0.36,0.11,0.0055
-3.6810e-02,-0.00999995,0.36,0.11,0.0035
-3.6806e-02,-0.00999995,0.36,0.11,0.0055
-3.6803e-02,-0.00999995,0.32,0.11,0.0055
-3.6800e-02,-0.00999995,0.32,0.11,0.0035
-3.6797e-02,-0.05,0.36,0.11,0.0055
-3.6794e-02,-0.00999995,0.32,0.11,0.0055
-3.6790e-02,-0.00999995,0.32,0.11,0.0035
-3.6787e-02,-0.00999995,0.32,0.11,0.0075
-3.6784e-02,-0.05,0.36,0.11,0.0055
-3.6781e-02,-0.00999995,0.36,0.11,0.0055
-3.6778e-02,-0.00999995,0.32,0.11,0.0055
-3.6774e-02,-0.05,0.32,0.11,0.0035
-3.6771e-02,-0.05,0.36,0.07,0.0035
-3.6768e-02,-0.00999995,0.36,0.11,0.0035
-3.6765e-02,-0.05,0.32,0.07,0.0035
-3.6762e-02,-0.00999995,0.32,0.11,0.0035
-3.6758e-02,-0.00999995,0.36,0.11,0.0075
-3.6755e-02,-0.05,0.36,0.11,0.0035
-3.6752e-02,-0.00999995,0.36,0.11,0.0055
-3.6749e-02,-0.05,0.36,0.11,0.0055
-3.6746e-02,-0.05,0.36,0.11,0.0035
-3.6742e-02,-0.05,0.4,0.11,0.0055
-3.6739e-02,-0.05,0.36,0.11,0.0035
-3.6736e-02,-0.05,0.32,0.11,0.0055
-3.6733e-02,-0.05,0.32,0.07,0.0055
-3.6730e-02,-0.00999995,0.32,0.11,0.0035
-3.6726e-02,-0.05,0.32,0.11,0.0055
-3.6723e-02,-0.05,0.32,0.11,0.0035
-3.6720e-02,-0.00999995,0.36,0.07,0.0055
-3.6717e-02,-0.00999995,0.36,0.07,0.0035
-3.6714e-02,-0.00999995,0.32,0.11,0.0055
-3.6710e-02,-0.00999995,0.36,0.11,0.0035
-3.6707e-02,-0.00999995,0.32,0.11,0.0035
-3.6704e-02,-0.05,0.36,0.11,0.0035
-3.6701e-02,-0.00999995,0.32,0.11,0.0055
-3.6698e-02,-0.00999995,0.32,0.11,0.0035
-3.6694e-02,-0.05,0.36,0.11,0.0035
-3.6691e-02,-0.05,0.32,0.11,0.0055
-3.6688e-02,-0.00999995,0.32,0.11,0.0055
-3.6685e-02,-0.05,0.36,0.11,0.0035
-3.6682e-02,-0.05,0.36,0.11,0.0055
-3.6678e-02,-0.05,0.36,0.11,0.0055
-3.6675e-02,-0.05,0.36,0.11,0.0035
-3.6672e-02,-0.05,0.36,0.11,0.0035
-3.6669e-02,-0.05,0.32,0.11,0.0055
-3.6666e-02,-0.00999995,0.36,0.11,0.0055
-3.6662e-02,-0.00999995,0.36,0.11,0.0055
-3.6659e-02,-0.00999995,0.36,0.11,0.0035
-3.6656e-02,-0.00999995,0.36,0.11,0.0055
-3.6653e-02,-0.05,0.36,0.07,0.0055
-3.6650e-02,-0.05,0.36,0.11,0.0055
-3.6646e-02,-0.05,0.32,0.11,0.0055
-3.6643e-02,-0.05,0.36,0.11,0.0055
-3.6640e-02,-0.00999995,0.36,0.11,0.0035
-3.6637e-02,-0.05,0.36,0.11,0.0055
-3.6634e-02,-0.00999995,0.4,0.11,0.0055
-3.6630e-02,-0.00999995,0.36,0.11,0.0035
-3.6627e-02,-0.00999995,0.36,0.11,0.0035
-3.6624e-02,-0.05,0.36,0.11,0.0055
-3.6621e-02,-0.05,0.36,0.11,0.0055
-3.6618e-02,-0.05,0.36,0.11,0.0055
-3.6614e-02,-0.05,0.36,0.07,0.0055
-3.6611e-02,-0.00999995,0.32,0.11,0.0055
-3.6608e-02,-0.00999995,0.36,0.11,0.0035
-3.6605e-02,-0.05,0.32,0.11,0.0055
-3.6602e-02,-0.05,0.32,0.11,0.0035
-3.6598e-02,-0.00999995,0.36,0.07,0.0035
-3.6595e-02,-0.00999995,0.36,0.11,0.0035
-3.6592e-02,-0.00999995,0.32,0.11,0.0035
-3.6589e-02,-0.00999995,0.32,0.11,0.0035
-3.6586e-02,-0.05,0.32,0.11,0.0055
-3.6582e-02,-0.05,0.36,0.11,0.0055
-3.6579e-02,-0.00999995,0.32,0.07,0.0055
-3.6576e-02,-0.05,0.32,0.11,0.0035
-3.6573e-02,-0.00999995,0.36,0.11,0.0035
-3.6570e-02,-0.00999995,0.32,0.11,0.0035
-3.6566e-02,-0.05,0.36,0.11,0.0035
-3.6563e-02,-0.00999995,0.32,0.11,0.0055
-3.6560e-02,-0.00999995,0.36,0.11,0.0035
-3.6557e-02,-0.00999995,0.32,0.07,0.0035
-3.6554e-02,-0.05,0.36,0.11,0.0035
-3.6550e-02,-0.05,0.36,0.11,0.0035
-3.6547e-02,-0.05,0.36,0.11,0.0055
-3.6544e-02,-0.05,0.36,0.11,0.0035
-3.6541e-02,-0.05,0.36,0.07,0.0055
-3.6538e-02,-0.05,0.32,0.11,0.0055
-3.6534e-02,-0.05,0.36,0.11,0.0055
-3.6531e-02,-0.00999995,0.36,0.11,0.0055
-3.6528e-02,-0.00999995,0.36,0.11,0.0035
-3.6525e-02,-0.05,0.32,0.11,0.0035
-3.6522e-02,-0.00999995,0.36,0.11,0.0035
-3.6518e-02,-0.00999995,0.36,0.11,0.0055
-3.6515e-02,-0.05,0.36,0.11,0.0035
-3.6512e-02,-0.05,0.32,0.11,0.0035
-3.6509e-02,-0.05,0.32,0.07,0.0035
-3.6506e-02,-0.00999995,0.32,0.11,0.0035
